Chrono/simulation/qsim/Chrono.msim.vcd
$comment
	File created using the following command:
		vcd file Chrono.msim.vcd -direction
$end
$date
	Sun Nov 21 17:42:39 2021
$end
$version
	ModelSim Version 10.5b
$end
$timescale
	1ps
$end

$scope module chrono_vhd_vec_tst $end
$var wire 1 ! clock_mux $end
$var wire 1 " clock_p $end
$var wire 1 # hab_DM $end
$var wire 1 $ hab_DS $end
$var wire 1 % hab_UM $end
$var wire 1 & hab_US $end
$var wire 1 ' sevendisp [7] $end
$var wire 1 ( sevendisp [6] $end
$var wire 1 ) sevendisp [5] $end
$var wire 1 * sevendisp [4] $end
$var wire 1 + sevendisp [3] $end
$var wire 1 , sevendisp [2] $end
$var wire 1 - sevendisp [1] $end
$var wire 1 . sevendisp [0] $end

$scope module i1 $end
$var wire 1 / gnd $end
$var wire 1 0 vcc $end
$var wire 1 1 unknown $end
$var wire 1 2 devoe $end
$var wire 1 3 devclrn $end
$var wire 1 4 devpor $end
$var wire 1 5 ww_devoe $end
$var wire 1 6 ww_devclrn $end
$var wire 1 7 ww_devpor $end
$var wire 1 8 ww_clock_p $end
$var wire 1 9 ww_clock_mux $end
$var wire 1 : ww_sevendisp [7] $end
$var wire 1 ; ww_sevendisp [6] $end
$var wire 1 < ww_sevendisp [5] $end
$var wire 1 = ww_sevendisp [4] $end
$var wire 1 > ww_sevendisp [3] $end
$var wire 1 ? ww_sevendisp [2] $end
$var wire 1 @ ww_sevendisp [1] $end
$var wire 1 A ww_sevendisp [0] $end
$var wire 1 B ww_hab_US $end
$var wire 1 C ww_hab_DS $end
$var wire 1 D ww_hab_UM $end
$var wire 1 E ww_hab_DM $end
$var wire 1 F \sevendisp[0]~output_o\ $end
$var wire 1 G \sevendisp[1]~output_o\ $end
$var wire 1 H \sevendisp[2]~output_o\ $end
$var wire 1 I \sevendisp[3]~output_o\ $end
$var wire 1 J \sevendisp[4]~output_o\ $end
$var wire 1 K \sevendisp[5]~output_o\ $end
$var wire 1 L \sevendisp[6]~output_o\ $end
$var wire 1 M \sevendisp[7]~output_o\ $end
$var wire 1 N \hab_US~output_o\ $end
$var wire 1 O \hab_DS~output_o\ $end
$var wire 1 P \hab_UM~output_o\ $end
$var wire 1 Q \hab_DM~output_o\ $end
$var wire 1 R \clock_p~input_o\ $end
$var wire 1 S \CONTADOR|s_US[0]~3_combout\ $end
$var wire 1 T \CONTADOR|s_US[2]~0_combout\ $end
$var wire 1 U \CONTADOR|s_US~1_combout\ $end
$var wire 1 V \CONTADOR|s_US~2_combout\ $end
$var wire 1 W \CONTADOR|Equal0~0_combout\ $end
$var wire 1 X \CONTADOR|s_DS[0]~4_combout\ $end
$var wire 1 Y \CONTADOR|s_DS~1_combout\ $end
$var wire 1 Z \CONTADOR|s_DS[3]~2_combout\ $end
$var wire 1 [ \CONTADOR|s_DS[3]~3_combout\ $end
$var wire 1 \ \CONTADOR|s_DS~0_combout\ $end
$var wire 1 ] \clock_mux~input_o\ $end
$var wire 1 ^ \MUXENS|count[0]~1_combout\ $end
$var wire 1 _ \CONTADOR|s_UM[0]~3_combout\ $end
$var wire 1 ` \CONTADOR|Equal1~0_combout\ $end
$var wire 1 a \CONTADOR|s_DM[0]~0_combout\ $end
$var wire 1 b \CONTADOR|s_UM~2_combout\ $end
$var wire 1 c \CONTADOR|s_UM~1_combout\ $end
$var wire 1 d \CONTADOR|s_UM[2]~0_combout\ $end
$var wire 1 e \MUXENS|count[1]~0_combout\ $end
$var wire 1 f \SELECTOR|Y[2]~0_combout\ $end
$var wire 1 g \CONTADOR|Equal2~0_combout\ $end
$var wire 1 h \CONTADOR|s_DM[0]~6_combout\ $end
$var wire 1 i \CONTADOR|s_DM[3]~2_combout\ $end
$var wire 1 j \CONTADOR|s_DM~3_combout\ $end
$var wire 1 k \CONTADOR|s_DM[3]~4_combout\ $end
$var wire 1 l \CONTADOR|s_DM[3]~5_combout\ $end
$var wire 1 m \CONTADOR|s_DM~1_combout\ $end
$var wire 1 n \SELECTOR|Y[2]~1_combout\ $end
$var wire 1 o \SELECTOR|Y[0]~2_combout\ $end
$var wire 1 p \SELECTOR|Y[0]~3_combout\ $end
$var wire 1 q \SELECTOR|Y[1]~4_combout\ $end
$var wire 1 r \SELECTOR|Y[1]~5_combout\ $end
$var wire 1 s \SELECTOR|Y[3]~6_combout\ $end
$var wire 1 t \SELECTOR|Y[3]~7_combout\ $end
$var wire 1 u \DISPDECODER|sevenseg[0]~0_combout\ $end
$var wire 1 v \DISPDECODER|sevenseg[1]~1_combout\ $end
$var wire 1 w \DISPDECODER|sevenseg[2]~2_combout\ $end
$var wire 1 x \DISPDECODER|sevenseg[3]~3_combout\ $end
$var wire 1 y \DISPDECODER|sevenseg[4]~4_combout\ $end
$var wire 1 z \DISPDECODER|sevenseg[5]~5_combout\ $end
$var wire 1 { \DISPDECODER|sevenseg[6]~6_combout\ $end
$var wire 1 | \MUXENS|Mux3~0_combout\ $end
$var wire 1 } \MUXENS|Mux2~0_combout\ $end
$var wire 1 ~ \MUXENS|Mux1~0_combout\ $end
$var wire 1 !! \MUXENS|Mux0~0_combout\ $end
$var wire 1 "! \CONTADOR|s_DS\ [3] $end
$var wire 1 #! \CONTADOR|s_DS\ [2] $end
$var wire 1 $! \CONTADOR|s_DS\ [1] $end
$var wire 1 %! \CONTADOR|s_DS\ [0] $end
$var wire 1 &! \MUXENS|count\ [1] $end
$var wire 1 '! \MUXENS|count\ [0] $end
$var wire 1 (! \CONTADOR|s_UM\ [3] $end
$var wire 1 )! \CONTADOR|s_UM\ [2] $end
$var wire 1 *! \CONTADOR|s_UM\ [1] $end
$var wire 1 +! \CONTADOR|s_UM\ [0] $end
$var wire 1 ,! \CONTADOR|s_US\ [3] $end
$var wire 1 -! \CONTADOR|s_US\ [2] $end
$var wire 1 .! \CONTADOR|s_US\ [1] $end
$var wire 1 /! \CONTADOR|s_US\ [0] $end
$var wire 1 0! \CONTADOR|s_DM\ [3] $end
$var wire 1 1! \CONTADOR|s_DM\ [2] $end
$var wire 1 2! \CONTADOR|s_DM\ [1] $end
$var wire 1 3! \CONTADOR|s_DM\ [0] $end
$var wire 1 4! \DISPDECODER|ALT_INV_sevenseg[1]~1_combout\ $end
$upscope $end
$upscope $end
$enddefinitions $end
#0
$dumpvars
0!
0"
1#
1$
1%
0&
0/
10
x1
12
13
14
15
16
17
08
09
0B
1C
1D
1E
1F
1G
1H
1I
1J
1K
0L
0M
0N
1O
1P
1Q
0R
1S
0T
0U
0V
0W
1X
0Y
0Z
0[
0\
0]
1^
1_
0`
0a
0b
0c
0d
0e
1f
0g
1h
0i
0j
0k
0l
0m
1n
0o
0p
0q
0r
0s
0t
1u
0v
1w
1x
1y
1z
0{
0|
1}
1~
1!!
14!
0:
0;
1<
1=
1>
1?
1@
1A
0"!
0#!
0$!
0%!
0&!
0'!
0(!
0)!
0*!
0+!
0,!
0-!
0.!
0/!
00!
01!
02!
03!
0'
0(
1)
1*
1+
1,
1-
1.
$end
#50000
1!
19
1]
1'!
0^
1e
0f
1|
0}
0O
1N
0C
1B
0$
1&
#100000
0!
09
0]
#150000
1!
19
1]
0'!
1&!
1^
1f
0n
1}
0~
0P
1O
0u
0x
0y
1{
1n
0D
1C
1L
0J
0I
0F
1u
1x
1y
0{
0%
1$
1;
0=
0>
0A
0L
1J
1I
1F
0.
0+
0*
1(
0;
1=
1>
1A
1.
1+
1*
0(
#200000
0!
09
0]
#250000
1!
1"
19
18
1R
1]
1'!
1/!
0S
1U
0^
0e
1o
1q
1s
1~
0!!
0Q
1P
0E
1D
0#
1%
#300000
0!
09
0]
#350000
1!
19
1]
0'!
0&!
1p
1r
1t
1^
0q
0s
0|
1!!
1Q
0N
0t
0r
0u
1v
0w
0x
0y
0z
04!
1E
0B
0K
0J
0I
0H
0F
0v
1w
1#
0&
0G
14!
0<
0=
0>
0?
0A
1H
0@
0.
0,
0+
0*
0)
1G
1?
0-
1@
1,
1-
#400000
0!
09
0]
#450000
1!
19
1]
1'!
0^
1e
0f
0o
1|
0}
0O
1N
0p
0C
1B
1u
1x
1y
1z
0$
1&
1K
1J
1I
1F
1<
1=
1>
1A
1.
1+
1*
1)
#500000
0!
0"
09
08
0R
0]
#550000
1!
19
1]
0'!
1&!
1^
1f
0n
1}
0~
0P
1O
0u
0x
0y
1{
1n
0D
1C
1L
0J
0I
0F
1u
1x
1y
0{
0%
1$
1;
0=
0>
0A
0L
1J
1I
1F
0.
0+
0*
1(
0;
1=
1>
1A
1.
1+
1*
0(
#600000
0!
09
0]
#650000
1!
19
1]
1'!
0^
0e
1o
1q
1s
1~
0!!
0Q
1P
0E
1D
0#
1%
#700000
0!
09
0]
#750000
1!
1"
19
18
1R
1]
0'!
0&!
0/!
1.!
1S
1p
1r
1t
1^
0o
0s
0|
1!!
1Q
0N
0t
0p
0u
1v
0w
0x
0y
0z
04!
1E
0B
0K
0J
0I
0H
0F
1u
0v
1x
1y
1{
1#
0&
0G
14!
0<
0=
0>
0?
0A
1L
1J
1I
1F
0@
0.
0,
0+
0*
0)
1G
1;
1=
1>
1A
0-
1@
1.
1+
1*
1(
1-
#800000
0!
09
0]
#850000
1!
19
1]
1'!
0^
1e
0f
0q
1|
0}
0O
1N
0r
0C
1B
1w
1z
0{
0$
1&
0L
1K
1H
0;
1<
1?
1,
1)
0(
#900000
0!
09
0]
#950000
1!
19
1]
0'!
1&!
1^
1f
0n
1}
0~
0P
1O
0u
0x
0y
1{
1n
0D
1C
1L
0J
0I
0F
1u
1x
1y
0{
0%
1$
1;
0=
0>
0A
0L
1J
1I
1F
0.
0+
0*
1(
0;
1=
1>
1A
1.
1+
1*
0(
#1000000
0!
0"
09
08
0R
0]
#1050000
1!
19
1]
1'!
0^
0e
1o
1q
1s
1~
0!!
0Q
1P
0E
1D
0#
1%
#1100000
0!
09
0]
#1150000
1!
19
1]
0'!
0&!
1p
1r
1t
1^
0o
0s
0|
1!!
1Q
0N
0t
0p
0u
1v
0w
0x
0y
0z
04!
1E
0B
0K
0J
0I
0H
0F
1u
0v
1x
1y
1{
1#
0&
0G
14!
0<
0=
0>
0?
0A
1L
1J
1I
1F
0@
0.
0,
0+
0*
0)
1G
1;
1=
1>
1A
0-
1@
1.
1+
1*
1(
1-
#1200000
0!
09
0]
#1250000
1!
1"
19
18
1R
1]
1'!
1/!
0S
1T
0U
0^
1e
0f
0q
1|
0}
0O
1N
0r
0C
1B
1w
1z
0{
0$
1&
0L
1K
1H
0;
1<
1?
1,
1)
0(
#1300000
0!
09
0]
#1350000
1!
19
1]
0'!
1&!
1^
1f
0n
1}
0~
0P
1O
0u
0x
0y
1{
1n
0D
1C
1L
0J
0I
0F
1u
1x
1y
0{
0%
1$
1;
0=
0>
0A
0L
1J
1I
1F
0.
0+
0*
1(
0;
1=
1>
1A
1.
1+
1*
0(
#1400000
0!
09
0]
#1450000
1!
19
1]
1'!
0^
0e
1o
1q
1s
1~
0!!
0Q
1P
0E
1D
0#
1%
#1500000
0!
0"
09
08
0R
0]
#1550000
1!
19
1]
0'!
0&!
1p
1r
1t
1^
0s
0|
1!!
1Q
0N
0t
0u
1v
0w
0x
0y
0z
04!
1E
0B
0K
0J
0I
0H
0F
1u
0v
1w
1x
1{
1#
0&
0G
14!
0<
0=
0>
0?
0A
1L
1I
1H
1F
0@
0.
0,
0+
0*
0)
1G
1;
1>
1?
1A
0-
1@
1.
1,
1+
1(
1-
#1600000
0!
09
0]
#1650000
1!
19
1]
1'!
0^
1e
0f
0o
0q
1|
0}
0O
1N
0r
0p
0C
1B
1y
1z
0{
0$
1&
0L
1K
1J
0;
1<
1=
1*
1)
0(
#1700000
0!
09
0]
#1750000
1!
1"
19
18
1R
1]
0'!
1&!
0/!
1-!
0.!
1S
1^
1f
0n
1}
0~
0P
1O
0u
0x
0y
1{
1n
0D
1C
1L
0J
0I
0F
1u
1x
1y
0{
0%
1$
1;
0=
0>
0A
0L
1J
1I
1F
0.
0+
0*
1(
0;
1=
1>
1A
1.
1+
1*
0(
#1800000
0!
09
0]
#1850000
1!
19
1]
1'!
0^
0e
1o
1q
1s
1~
0!!
0Q
1P
0E
1D
0#
1%
#1900000
0!
09
0]
#1950000
1!
19
1]
0'!
0&!
1p
1r
1t
1^
0f
0o
0q
0s
0|
1!!
1Q
0N
0t
0r
0p
0n
0u
1v
0w
0x
0y
0z
04!
1E
0B
0K
0J
0I
0H
0F
0v
1w
1z
1{
1#
0&
0G
14!
0<
0=
0>
0?
0A
1L
1K
1H
0@
0.
0,
0+
0*
0)
1G
1;
1<
1?
0-
1@
1,
1)
1(
1-
#2000000
0!
0"
09
08
0R
0]
#2050000
1!
19
1]
1'!
0^
1e
1n
1|
0}
0O
1N
1u
1x
1y
0{
0C
1B
0L
1J
1I
1F
0$
1&
0;
1=
1>
1A
1.
1+
1*
0(
#2100000
0!
09
0]
#2150000
1!
19
1]
0'!
1&!
1^
1f
0n
1}
0~
0P
1O
0u
0x
0y
1{
1n
0D
1C
1L
0J
0I
0F
1u
1x
1y
0{
0%
1$
1;
0=
0>
0A
0L
1J
1I
1F
0.
0+
0*
1(
0;
1=
1>
1A
1.
1+
1*
0(
#2200000
0!
09
0]
#2250000
1!
1"
19
18
1R
1]
1'!
1/!
0S
1U
0^
0e
1o
1q
1s
1~
0!!
0Q
1P
0E
1D
0#
1%
#2300000
0!
09
0]
#2350000
1!
19
1]
0'!
0&!
1p
1r
1t
1^
0f
0q
0s
0|
1!!
1Q
0N
0t
0r
0n
0u
1v
0w
0x
0y
0z
04!
1E
0B
0K
0J
0I
0H
0F
1u
1w
1x
1z
1{
1#
0&
0G
0<
0=
0>
0?
0A
1L
1K
1I
1H
1F
0@
0.
0,
0+
0*
0)
1;
1<
1>
1?
1A
0-
1.
1,
1+
1)
1(
#2400000
0!
09
0]
#2450000
1!
19
1]
1'!
0^
1e
1n
0o
1|
0}
0O
1N
0p
0u
0v
0x
0z
0{
14!
0C
1B
0L
0K
0I
0F
1u
1x
1y
1z
0$
1&
1G
0;
0<
0>
0A
1K
1J
1I
1F
1@
0.
0+
0)
0(
1<
1=
1>
1A
1-
1.
1+
1*
1)
#2500000
0!
0"
09
08
0R
0]
#2550000
1!
19
1]
0'!
1&!
1^
1f
0n
1}
0~
0P
1O
0u
0x
0y
1{
1n
0D
1C
1L
0J
0I
0F
1u
1x
1y
0{
0%
1$
1;
0=
0>
0A
0L
1J
1I
1F
0.
0+
0*
1(
0;
1=
1>
1A
1.
1+
1*
0(
#2600000
0!
09
0]
#2650000
1!
19
1]
1'!
0^
0e
1o
1q
1s
1~
0!!
0Q
1P
0E
1D
0#
1%
#2700000
0!
09
0]
#2750000
1!
1"
19
18
1R
1]
0'!
0&!
0/!
1.!
1S
1p
1r
1t
1^
0f
0o
0s
0|
1!!
1Q
0N
0t
0p
0n
0u
1v
0w
0x
0y
0z
04!
1E
0B
0K
0J
0I
0H
0F
1u
1w
1x
1y
1z
1{
1#
0&
0G
0<
0=
0>
0?
0A
1L
1K
1J
1I
1H
1F
0@
0.
0,
0+
0*
0)
1;
1<
1=
1>
1?
1A
0-
1.
1,
1+
1*
1)
1(
#2800000
0!
09
0]
#2850000
1!
19
1]
1'!
0^
1e
1n
0q
1|
0}
0O
1N
0r
0v
0w
0z
14!
0C
1B
0K
0H
1w
1z
0{
0$
1&
1G
0<
0?
0L
1K
1H
1@
0,
0)
0;
1<
1?
1-
1,
1)
0(
#2900000
0!
09
0]
#2950000
1!
19
1]
0'!
1&!
1^
1f
0n
1}
0~
0P
1O
0u
0x
0y
1{
1n
0D
1C
1L
0J
0I
0F
1u
1x
1y
0{
0%
1$
1;
0=
0>
0A
0L
1J
1I
1F
0.
0+
0*
1(
0;
1=
1>
1A
1.
1+
1*
0(
#3000000
0!
0"
09
08
0R
0]
#3050000
1!
19
1]
1'!
0^
0e
1o
1q
1s
1~
0!!
0Q
1P
0E
1D
0#
1%
#3100000
0!
09
0]
#3150000
1!
19
1]
0'!
0&!
1p
1r
1t
1^
0f
0o
0s
0|
1!!
1Q
0N
0t
0p
0n
0u
1v
0w
0x
0y
0z
04!
1E
0B
0K
0J
0I
0H
0F
1u
1w
1x
1y
1z
1{
1#
0&
0G
0<
0=
0>
0?
0A
1L
1K
1J
1I
1H
1F
0@
0.
0,
0+
0*
0)
1;
1<
1=
1>
1?
1A
0-
1.
1,
1+
1*
1)
1(
#3200000
0!
09
0]
#3250000
1!
1"
19
18
1R
1]
1'!
1/!
0S
0T
0U
1V
0^
1e
1n
0q
1|
0}
0O
1N
0r
0v
0w
0z
14!
0C
1B
0K
0H
1w
1z
0{
0$
1&
1G
0<
0?
0L
1K
1H
1@
0,
0)
0;
1<
1?
1-
1,
1)
0(
#3300000
0!
09
0]
#3350000
1!
19
1]
0'!
1&!
1^
1f
0n
1}
0~
0P
1O
0u
0x
0y
1{
1n
0D
1C
1L
0J
0I
0F
1u
1x
1y
0{
0%
1$
1;
0=
0>
0A
0L
1J
1I
1F
0.
0+
0*
1(
0;
1=
1>
1A
1.
1+
1*
0(
#3400000
0!
09
0]
#3450000
1!
19
1]
1'!
0^
0e
1o
1q
1s
1~
0!!
0Q
1P
0E
1D
0#
1%
#3500000
0!
0"
09
08
0R
0]
#3550000
1!
19
1]
0'!
0&!
1p
1r
1t
1^
0f
0s
0|
1!!
1Q
0N
0t
0n
0u
1v
0w
0x
0y
0z
04!
1E
0B
0K
0J
0I
0H
0F
1u
0v
1w
1#
0&
0G
14!
0<
0=
0>
0?
0A
1H
1F
0@
0.
0,
0+
0*
0)
1G
1?
1A
0-
1@
1.
1,
1-
#3600000
0!
09
0]
#3650000
1!
19
1]
1'!
0^
1e
1n
0o
0q
1|
0}
0O
1N
0r
0p
1x
1{
0C
1B
1L
1I
1y
1z
0{
0$
1&
1;
1>
0L
1K
1J
1+
1(
0;
1<
1=
1*
1)
0(
#3700000
0!
09
0]
#3750000
1!
1"
19
18
1R
1]
0'!
1&!
0/!
0-!
0.!
1,!
1S
1^
1f
0n
1}
0~
0P
1O
0u
0x
0y
1{
1n
0D
1C
1L
0J
0I
0F
1u
1x
1y
0{
0%
1$
1;
0=
0>
0A
0L
1J
1I
1F
0.
0+
0*
1(
0;
1=
1>
1A
1.
1+
1*
0(
#3800000
0!
09
0]
#3850000
1!
19
1]
1'!
0^
0e
1o
1q
1s
1~
0!!
0Q
1P
0E
1D
0#
1%
#3900000
0!
09
0]
#3950000
1!
19
1]
0'!
0&!
1p
1r
1t
1^
0o
0q
0|
1!!
1Q
0N
0r
0p
0u
1v
0w
0x
0y
0z
04!
1E
0B
0K
0J
0I
0H
0F
1u
0v
1w
1x
1y
1z
1{
1#
0&
0G
14!
0<
0=
0>
0?
0A
1L
1K
1J
1I
1H
1F
0@
0.
0,
0+
0*
0)
1G
1;
1<
1=
1>
1?
1A
0-
1@
1.
1,
1+
1*
1)
1(
1-
#4000000
0!
0"
09
08
0R
0]
#4050000
1!
19
1]
1'!
0^
1e
0f
0s
1|
0}
0O
1N
0t
0C
1B
0{
0$
1&
0L
0;
0(
#4100000
0!
09
0]
#4150000
1!
19
1]
0'!
1&!
1^
1f
0n
1}
0~
0P
1O
0u
0x
0y
1{
1n
0D
1C
1L
0J
0I
0F
1u
1x
1y
0{
0%
1$
1;
0=
0>
0A
0L
1J
1I
1F
0.
0+
0*
1(
0;
1=
1>
1A
1.
1+
1*
0(
#4200000
0!
09
0]
#4250000
1!
1"
19
18
1R
1]
1'!
1/!
0S
0V
1W
0^
0e
1o
1q
1s
1~
0!!
0Q
1P
0E
1D
0#
1%
#4300000
0!
09
0]
#4350000
1!
19
1]
0'!
0&!
1p
1r
1t
1^
0q
0|
1!!
1Q
0N
0r
0u
1v
0w
0x
0y
0z
04!
1E
0B
0K
0J
0I
0H
0F
1u
0v
1w
1x
1z
1{
1#
0&
0G
14!
0<
0=
0>
0?
0A
1L
1K
1I
1H
1F
0@
0.
0,
0+
0*
0)
1G
1;
1<
1>
1?
1A
0-
1@
1.
1,
1+
1)
1(
1-
#4400000
0!
09
0]
#4450000
1!
19
1]
1'!
0^
1e
0f
0o
0s
1|
0}
0O
1N
0t
0p
0C
1B
1y
0{
0$
1&
0L
1J
0;
1=
1*
0(
#4500000
0!
0"
09
08
0R
0]
#4550000
1!
19
1]
0'!
1&!
1^
1f
0n
1}
0~
0P
1O
0u
0x
0y
1{
1n
0D
1C
1L
0J
0I
0F
1u
1x
1y
0{
0%
1$
1;
0=
0>
0A
0L
1J
1I
1F
0.
0+
0*
1(
0;
1=
1>
1A
1.
1+
1*
0(
#4600000
0!
09
0]
#4650000
1!
19
1]
1'!
0^
0e
1o
1q
1s
1~
0!!
0Q
1P
0E
1D
0#
1%
#4700000
0!
09
0]
#4750000
1!
1"
19
18
1R
1]
0'!
0&!
0/!
0,!
1%!
0X
1Y
1S
0W
1p
1r
1t
1^
0o
0q
0s
0|
1!!
1Q
0N
0t
0r
0p
0u
1v
0w
0x
0y
0z
04!
1E
0B
0K
0J
0I
0H
0F
1u
0v
1w
1x
1y
1z
1#
0&
0G
14!
0<
0=
0>
0?
0A
1K
1J
1I
1H
1F
0@
0.
0,
0+
0*
0)
1G
1<
1=
1>
1?
1A
0-
1@
1.
1,
1+
1*
1)
1-
#4800000
0!
09
0]
#4850000
1!
19
1]
1'!
0^
1e
0f
1o
1|
0}
0O
1N
1p
0C
1B
0u
0x
0y
0z
0$
1&
0K
0J
0I
0F
0<
0=
0>
0A
0.
0+
0*
0)
#4900000
0!
09
0]
#4950000
1!
19
1]
0'!
1&!
0p
1^
1f
0n
0o
1}
0~
0P
1O
1n
1z
1{
0D
1C
1L
1K
1u
1x
1y
0{
0%
1$
1;
1<
0L
1J
1I
1F
1)
1(
0;
1=
1>
1A
1.
1+
1*
0(
#5000000
0!
0"
09
08
0R
0]
#5050000
1!
19
1]
1'!
0^
0e
1o
1q
1s
1~
0!!
0Q
1P
0E
1D
0#
1%
#5100000
0!
09
0]
#5150000
1!
19
1]
0'!
0&!
1p
1r
1t
1^
0o
0q
0s
0|
1!!
1Q
0N
0t
0r
0p
0u
1v
0w
0x
0y
0z
04!
1E
0B
0K
0J
0I
0H
0F
1u
0v
1w
1x
1y
1z
1#
0&
0G
14!
0<
0=
0>
0?
0A
1K
1J
1I
1H
1F
0@
0.
0,
0+
0*
0)
1G
1<
1=
1>
1?
1A
0-
1@
1.
1,
1+
1*
1)
1-
#5200000
0!
09
0]
#5250000
1!
1"
19
18
1R
1]
1'!
1/!
0S
1U
0^
1e
0f
1o
1|
0}
0O
1N
1p
0C
1B
0u
0x
0y
0z
0$
1&
0K
0J
0I
0F
0<
0=
0>
0A
0.
0+
0*
0)
#5300000
0!
09
0]
#5350000
1!
19
1]
0'!
1&!
0p
1^
1f
0n
0o
1}
0~
0P
1O
1n
1z
1{
0D
1C
1L
1K
1u
1x
1y
0{
0%
1$
1;
1<
0L
1J
1I
1F
1)
1(
0;
1=
1>
1A
1.
1+
1*
0(
#5400000
0!
09
0]
#5450000
1!
19
1]
1'!
0^
0e
1o
1q
1s
1~
0!!
0Q
1P
0E
1D
0#
1%
#5500000
0!
0"
09
08
0R
0]
#5550000
1!
19
1]
0'!
0&!
1p
1r
1t
1^
0q
0s
0|
1!!
1Q
0N
0t
0r
0u
1v
0w
0x
0y
0z
04!
1E
0B
0K
0J
0I
0H
0F
0v
1w
1#
0&
0G
14!
0<
0=
0>
0?
0A
1H
0@
0.
0,
0+
0*
0)
1G
1?
0-
1@
1,
1-
#5600000
0!
09
0]
#5650000
1!
19
1]
1'!
0^
1e
0f
1|
0}
0O
1N
0C
1B
0$
1&
#5700000
0!
09
0]
#5750000
1!
1"
19
18
1R
1]
0'!
1&!
0/!
1.!
1S
0p
1^
1f
0n
0o
1}
0~
0P
1O
1n
1z
1{
0D
1C
1L
1K
1u
1x
1y
0{
0%
1$
1;
1<
0L
1J
1I
1F
1)
1(
0;
1=
1>
1A
1.
1+
1*
0(
#5800000
0!
09
0]
#5850000
1!
19
1]
1'!
0^
0e
1o
1q
1s
1~
0!!
0Q
1P
0E
1D
0#
1%
#5900000
0!
09
0]
#5950000
1!
19
1]
0'!
0&!
1p
1r
1t
1^
0o
0s
0|
1!!
1Q
0N
0t
0p
0u
1v
0w
0x
0y
0z
04!
1E
0B
0K
0J
0I
0H
0F
1u
0v
1x
1y
1{
1#
0&
0G
14!
0<
0=
0>
0?
0A
1L
1J
1I
1F
0@
0.
0,
0+
0*
0)
1G
1;
1=
1>
1A
0-
1@
1.
1+
1*
1(
1-
#6000000
0!
0"
09
08
0R
0]
#6050000
1!
19
1]
1'!
0^
1e
0f
1o
0q
1|
0}
0O
1N
0r
1p
0C
1B
0u
1w
0x
0y
0{
0$
1&
0L
0J
0I
1H
0F
0;
0=
0>
1?
0A
0.
1,
0+
0*
0(
#6100000
0!
09
0]
#6150000
1!
19
1]
0'!
1&!
0p
1^
1f
0n
0o
1}
0~
0P
1O
1n
1z
1{
0D
1C
1L
1K
1u
1x
1y
0{
0%
1$
1;
1<
0L
1J
1I
1F
1)
1(
0;
1=
1>
1A
1.
1+
1*
0(
#6200000
0!
09
0]
#6250000
1!
1"
19
18
1R
1]
1'!
1/!
0S
1T
0U
0^
0e
1o
1q
1s
1~
0!!
0Q
1P
0E
1D
0#
1%
#6300000
0!
09
0]
#6350000
1!
19
1]
0'!
0&!
1p
1r
1t
1^
0s
0|
1!!
1Q
0N
0t
0u
1v
0w
0x
0y
0z
04!
1E
0B
0K
0J
0I
0H
0F
1u
0v
1w
1x
1{
1#
0&
0G
14!
0<
0=
0>
0?
0A
1L
1I
1H
1F
0@
0.
0,
0+
0*
0)
1G
1;
1>
1?
1A
0-
1@
1.
1,
1+
1(
1-
#6400000
0!
09
0]
#6450000
1!
19
1]
1'!
0^
1e
0f
0q
1|
0}
0O
1N
0r
0C
1B
0u
0x
0{
0$
1&
0L
0I
0F
0;
0>
0A
0.
0+
0(
#6500000
0!
0"
09
08
0R
0]
#6550000
1!
19
1]
0'!
1&!
0p
1^
1f
0n
0o
1}
0~
0P
1O
1n
1z
1{
0D
1C
1L
1K
1u
1x
1y
0{
0%
1$
1;
1<
0L
1J
1I
1F
1)
1(
0;
1=
1>
1A
1.
1+
1*
0(
#6600000
0!
09
0]
#6650000
1!
19
1]
1'!
0^
0e
1o
1q
1s
1~
0!!
0Q
1P
0E
1D
0#
1%
#6700000
0!
09
0]
#6750000
1!
1"
19
18
1R
1]
0'!
0&!
0/!
1-!
0.!
1S
1p
1r
1t
1^
0f
0o
0q
0s
0|
1!!
1Q
0N
0t
0r
0p
0n
0u
1v
0w
0x
0y
0z
04!
1E
0B
0K
0J
0I
0H
0F
0v
1w
1z
1{
1#
0&
0G
14!
0<
0=
0>
0?
0A
1L
1K
1H
0@
0.
0,
0+
0*
0)
1G
1;
1<
1?
0-
1@
1,
1)
1(
1-
#6800000
0!
09
0]
#6850000
1!
19
1]
1'!
0^
1e
1n
1o
1|
0}
0O
1N
1p
1u
1x
1y
0{
0C
1B
0L
1J
1I
1F
0u
0x
0y
0z
0$
1&
0;
1=
1>
1A
0K
0J
0I
0F
1.
1+
1*
0(
0<
0=
0>
0A
0.
0+
0*
0)
#6900000
0!
09
0]
#6950000
1!
19
1]
0'!
1&!
0p
1^
1f
0n
0o
1}
0~
0P
1O
1n
1z
1{
0D
1C
1L
1K
1u
1x
1y
0{
0%
1$
1;
1<
0L
1J
1I
1F
1)
1(
0;
1=
1>
1A
1.
1+
1*
0(
#7000000
0!
0"
09
08
0R
0]
#7050000
1!
19
1]
1'!
0^
0e
1o
1q
1s
1~
0!!
0Q
1P
0E
1D
0#
1%
#7100000
0!
09
0]
#7150000
1!
19
1]
0'!
0&!
1p
1r
1t
1^
0f
0o
0q
0s
0|
1!!
1Q
0N
0t
0r
0p
0n
0u
1v
0w
0x
0y
0z
04!
1E
0B
0K
0J
0I
0H
0F
0v
1w
1z
1{
1#
0&
0G
14!
0<
0=
0>
0?
0A
1L
1K
1H
0@
0.
0,
0+
0*
0)
1G
1;
1<
1?
0-
1@
1,
1)
1(
1-
#7200000
0!
09
0]
#7250000
1!
1"
19
18
1R
1]
1'!
1/!
0S
1U
0^
1e
1n
1o
1|
0}
0O
1N
1p
1u
1x
1y
0{
0C
1B
0L
1J
1I
1F
0u
0x
0y
0z
0$
1&
0;
1=
1>
1A
0K
0J
0I
0F
1.
1+
1*
0(
0<
0=
0>
0A
0.
0+
0*
0)
#7300000
0!
09
0]
#7350000
1!
19
1]
0'!
1&!
0p
1^
1f
0n
0o
1}
0~
0P
1O
1n
1z
1{
0D
1C
1L
1K
1u
1x
1y
0{
0%
1$
1;
1<
0L
1J
1I
1F
1)
1(
0;
1=
1>
1A
1.
1+
1*
0(
#7400000
0!
09
0]
#7450000
1!
19
1]
1'!
0^
0e
1o
1q
1s
1~
0!!
0Q
1P
0E
1D
0#
1%
#7500000
0!
0"
09
08
0R
0]
#7550000
1!
19
1]
0'!
0&!
1p
1r
1t
1^
0f
0q
0s
0|
1!!
1Q
0N
0t
0r
0n
0u
1v
0w
0x
0y
0z
04!
1E
0B
0K
0J
0I
0H
0F
1u
1w
1x
1z
1{
1#
0&
0G
0<
0=
0>
0?
0A
1L
1K
1I
1H
1F
0@
0.
0,
0+
0*
0)
1;
1<
1>
1?
1A
0-
1.
1,
1+
1)
1(
#7600000
0!
09
0]
#7650000
1!
19
1]
1'!
0^
1e
1n
1|
0}
0O
1N
0u
0v
0x
0z
0{
14!
0C
1B
0L
0K
0I
0F
0$
1&
1G
0;
0<
0>
0A
1@
0.
0+
0)
0(
1-
#7700000
0!
09
0]
