SPI_Master/simulation/qsim/SPI_Master.msim.vcd
$comment
	File created using the following command:
		vcd file SPI_Master.msim.vcd -direction
$end
$date
	Sat Jul 15 03:28:10 2023
$end
$version
	ModelSim Version 10.5b
$end
$timescale
	1ps
$end

$scope module spi_master_vhd_vec_tst $end
$var wire 1 ! clk $end
$var wire 1 " CS $end
$var wire 1 # dato_rx [7] $end
$var wire 1 $ dato_rx [6] $end
$var wire 1 % dato_rx [5] $end
$var wire 1 & dato_rx [4] $end
$var wire 1 ' dato_rx [3] $end
$var wire 1 ( dato_rx [2] $end
$var wire 1 ) dato_rx [1] $end
$var wire 1 * dato_rx [0] $end
$var wire 1 + medir $end
$var wire 1 , MISO $end
$var wire 1 - MOSI $end
$var wire 1 . reset $end

$scope module i1 $end
$var wire 1 / gnd $end
$var wire 1 0 vcc $end
$var wire 1 1 unknown $end
$var wire 1 2 devoe $end
$var wire 1 3 devclrn $end
$var wire 1 4 devpor $end
$var wire 1 5 ww_devoe $end
$var wire 1 6 ww_devclrn $end
$var wire 1 7 ww_devpor $end
$var wire 1 8 ww_clk $end
$var wire 1 9 ww_medir $end
$var wire 1 : ww_reset $end
$var wire 1 ; ww_MISO $end
$var wire 1 < ww_MOSI $end
$var wire 1 = ww_CS $end
$var wire 1 > ww_dato_rx [7] $end
$var wire 1 ? ww_dato_rx [6] $end
$var wire 1 @ ww_dato_rx [5] $end
$var wire 1 A ww_dato_rx [4] $end
$var wire 1 B ww_dato_rx [3] $end
$var wire 1 C ww_dato_rx [2] $end
$var wire 1 D ww_dato_rx [1] $end
$var wire 1 E ww_dato_rx [0] $end
$var wire 1 F \MOSI~output_o\ $end
$var wire 1 G \CS~output_o\ $end
$var wire 1 H \dato_rx[0]~output_o\ $end
$var wire 1 I \dato_rx[1]~output_o\ $end
$var wire 1 J \dato_rx[2]~output_o\ $end
$var wire 1 K \dato_rx[3]~output_o\ $end
$var wire 1 L \dato_rx[4]~output_o\ $end
$var wire 1 M \dato_rx[5]~output_o\ $end
$var wire 1 N \dato_rx[6]~output_o\ $end
$var wire 1 O \dato_rx[7]~output_o\ $end
$var wire 1 P \clk~input_o\ $end
$var wire 1 Q \medir~input_o\ $end
$var wire 1 R \reset~input_o\ $end
$var wire 1 S \pr_state.b6~q\ $end
$var wire 1 T \pr_state.b5~q\ $end
$var wire 1 U \pr_state.b4~q\ $end
$var wire 1 V \pr_state.b3~q\ $end
$var wire 1 W \pr_state.b2~q\ $end
$var wire 1 X \pr_state.b1~q\ $end
$var wire 1 Y \pr_state.b0~q\ $end
$var wire 1 Z \MISO~input_o\ $end
$var wire 1 [ \Selector10~0_combout\ $end
$var wire 1 \ \pr_state.fintx~q\ $end
$var wire 1 ] \Selector11~0_combout\ $end
$var wire 1 ^ \pr_state.a6~q\ $end
$var wire 1 _ \pr_state.a5~q\ $end
$var wire 1 ` \pr_state.a4~q\ $end
$var wire 1 a \pr_state.a3~q\ $end
$var wire 1 b \pr_state.a2~q\ $end
$var wire 1 c \pr_state.a1~q\ $end
$var wire 1 d \pr_state.a0~q\ $end
$var wire 1 e \pr_state.fin~q\ $end
$var wire 1 f \Selector1~0_combout\ $end
$var wire 1 g \pr_state.idle~q\ $end
$var wire 1 h \Selector2~0_combout\ $end
$var wire 1 i \pr_state.b7~q\ $end
$var wire 1 j \WideOr1~0_combout\ $end
$var wire 1 k \WideOr1~combout\ $end
$var wire 1 l \WideOr2~0_combout\ $end
$var wire 1 m \WideOr2~1_combout\ $end
$var wire 1 n \WideOr2~combout\ $end
$var wire 1 o \s_mosi~combout\ $end
$var wire 1 p \Selector19~0_combout\ $end
$var wire 1 q \WideOr3~0_combout\ $end
$var wire 1 r \s_cs~combout\ $end
$var wire 1 s \dato_rx[0]$latch~combout\ $end
$var wire 1 t \dato_rx[1]$latch~combout\ $end
$var wire 1 u \dato_rx[2]$latch~combout\ $end
$var wire 1 v \dato_rx[3]$latch~combout\ $end
$var wire 1 w \dato_rx[4]$latch~combout\ $end
$var wire 1 x \dato_rx[5]$latch~combout\ $end
$var wire 1 y \dato_rx[6]$latch~combout\ $end
$var wire 1 z dato [7] $end
$var wire 1 { dato [6] $end
$var wire 1 | dato [5] $end
$var wire 1 } dato [4] $end
$var wire 1 ~ dato [3] $end
$var wire 1 !! dato [2] $end
$var wire 1 "! dato [1] $end
$var wire 1 #! dato [0] $end
$var wire 1 $! \ALT_INV_s_cs~combout\ $end
$var wire 1 %! \ALT_INV_reset~input_o\ $end
$upscope $end
$upscope $end
$enddefinitions $end
#0
$dumpvars
0!
1"
0+
z,
z-
0.
0/
10
x1
12
13
14
15
16
17
08
09
0:
z;
z<
1=
zF
1G
xH
xI
xJ
xK
xL
xM
xN
0O
0P
0Q
0R
0S
0T
0U
0V
0W
0X
0Y
zZ
0[
0\
0]
0^
0_
0`
0a
0b
0c
0d
0e
0f
0g
0h
0i
0j
0k
0l
0m
0n
1o
1p
1q
1r
xs
xt
xu
xv
xw
xx
xy
0$!
1%!
0>
x?
x@
xA
xB
xC
xD
xE
xz
x{
x|
x}
x~
x!!
x"!
x#!
0#
x$
x%
x&
x'
x(
x)
x*
$end
#5000
1!
18
1P
#10000
0!
08
0P
#15000
1!
18
1P
#20000
0!
08
0P
#25000
1!
18
1P
#30000
0!
08
0P
#35000
1!
18
1P
#40000
0!
1+
1,
08
19
1;
1Z
1Q
0P
1f
1h
0p
0r
1$!
0G
1F
0=
1<
0"
1-
#45000
1!
18
1P
1g
1i
1j
0h
0q
1k
0o
0F
0<
0-
#50000
0!
08
0P
#55000
1!
18
1P
1S
0i
#60000
0!
08
0P
#65000
1!
18
1P
0S
1T
#70000
0!
0+
08
09
0Q
0P
1p
#75000
1!
18
1P
0T
1U
#80000
0!
08
0P
#85000
1!
18
1P
0U
1V
0j
#90000
0!
08
0P
#95000
1!
18
1P
0V
1W
0k
1o
1F
1<
1-
#100000
0!
08
0P
#105000
1!
18
1P
0W
1X
1k
0o
0F
0<
0-
#110000
0!
08
0P
#115000
1!
18
1P
0X
1Y
1[
0k
1o
1F
1<
1-
#120000
0!
08
0P
#125000
1!
18
1P
0Y
1\
#130000
0!
08
0P
#135000
1!
18
1P
#140000
0!
08
0P
#145000
1!
18
1P
#150000
0!
08
0P
#155000
1!
18
1P
#160000
0!
08
0P
#165000
1!
18
1P
#170000
0!
08
0P
#175000
1!
18
1P
#180000
0!
08
0P
#185000
1!
18
1P
#190000
0!
08
0P
#195000
1!
18
1P
#200000
0!
08
0P
#205000
1!
18
1P
#210000
0!
08
0P
#215000
1!
18
1P
#220000
0!
08
0P
#225000
1!
18
1P
#230000
0!
08
0P
#235000
1!
18
1P
#240000
0!
08
0P
#245000
1!
18
1P
#250000
0!
08
0P
#255000
1!
18
1P
#260000
0!
08
0P
#265000
1!
18
1P
#270000
0!
08
0P
#275000
1!
18
1P
#280000
0!
08
0P
#285000
1!
18
1P
#290000
0!
08
0P
#295000
1!
18
1P
#300000
0!
08
0P
#305000
1!
18
1P
#310000
0!
08
0P
#315000
1!
18
1P
#320000
0!
08
0P
#325000
1!
18
1P
#330000
0!
08
0P
#335000
1!
18
1P
#340000
0!
08
0P
#345000
1!
18
1P
#350000
0!
08
0P
#355000
1!
18
1P
#360000
0!
08
0P
#365000
1!
18
1P
#370000
0!
08
0P
#375000
1!
18
1P
#380000
0!
0,
08
0;
0Z
0P
0[
1]
#385000
1!
18
1P
0\
1^
1l
0{
0]
1n
#390000
0!
1,
08
1;
1Z
0P
1{
#395000
1!
18
1P
0^
1_
1|
#400000
0!
0,
08
0;
0Z
0P
0|
#405000
1!
18
1P
0_
1`
0}
#410000
0!
1,
08
1;
1Z
0P
1}
#415000
1!
18
1P
0`
1a
1~
#420000
0!
0,
08
0;
0Z
0P
0~
#425000
1!
18
1P
0a
1b
1m
0!!
0l
#430000
0!
1,
08
1;
1Z
0P
1!!
#435000
1!
18
1P
0b
1c
1"!
#440000
0!
0,
08
0;
0Z
0P
0"!
#445000
1!
18
1P
0c
1d
0#!
#450000
0!
1,
08
1;
1Z
0P
1#!
#455000
1!
18
1P
0d
1e
0f
1q
1s
0t
1u
0v
1w
0x
1y
1N
0M
1L
0K
1J
0I
1H
1r
0$!
1?
0@
1A
0B
1C
0D
1E
1G
1*
0)
1(
0'
1&
0%
1$
zF
1=
z<
1"
z-
#460000
0!
08
0P
#465000
1!
18
1P
0e
0g
0m
0n
#470000
0!
08
0P
#475000
1!
18
1P
#480000
0!
08
0P
#485000
1!
18
1P
#490000
0!
08
0P
#495000
1!
18
1P
#500000
0!
08
0P
#505000
1!
18
1P
#510000
0!
08
0P
#515000
1!
18
1P
#520000
0!
08
0P
#525000
1!
18
1P
#530000
0!
08
0P
#535000
1!
18
1P
#540000
0!
1+
08
19
1Q
0P
1f
1h
0p
0r
1$!
0G
1F
0=
1<
0"
1-
#545000
1!
18
1P
1g
1i
1j
0h
0q
1k
0o
0F
0<
0-
#550000
0!
0+
08
09
0Q
0P
1p
#555000
1!
18
1P
1S
0i
#560000
0!
08
0P
#565000
1!
18
1P
0S
1T
#570000
0!
08
0P
#575000
1!
18
1P
0T
1U
#580000
0!
08
0P
#585000
1!
18
1P
0U
1V
0j
#590000
0!
08
0P
#595000
1!
18
1P
0V
1W
0k
1o
1F
1<
1-
#600000
0!
08
0P
#605000
1!
18
1P
0W
1X
1k
0o
0F
0<
0-
#610000
0!
08
0P
#615000
1!
18
1P
0X
1Y
1[
0k
1o
1F
1<
1-
#620000
0!
08
0P
#625000
1!
18
1P
0Y
1\
#630000
0!
08
0P
#635000
1!
18
1P
#640000
0!
08
0P
#645000
1!
18
1P
#650000
0!
0,
08
0;
0Z
0P
0[
1]
#655000
1!
18
1P
0\
1^
1l
0{
0]
1n
#660000
0!
08
0P
#665000
1!
18
1P
0^
1_
#670000
0!
08
0P
#675000
1!
18
1P
0_
1`
0}
#680000
0!
08
0P
#685000
1!
18
1P
0`
1a
#690000
0!
1,
08
1;
1Z
0P
1~
#695000
1!
18
1P
0a
1b
1m
0l
#700000
0!
08
0P
#705000
1!
18
1P
0b
1c
1"!
#710000
0!
08
0P
#715000
1!
18
1P
0c
1d
#720000
0!
08
0P
#725000
1!
18
1P
0d
1e
0f
1q
1t
1v
0w
0y
0N
0L
1K
1I
1r
0$!
0?
0A
1B
1D
1G
1)
1'
0&
0$
zF
1=
z<
1"
z-
#730000
0!
08
0P
#735000
1!
18
1P
0e
0g
0m
0n
#740000
0!
08
0P
#745000
1!
18
1P
#750000
0!
08
0P
#755000
1!
18
1P
#760000
0!
08
0P
#765000
1!
18
1P
#770000
0!
08
0P
#775000
1!
18
1P
#780000
0!
08
0P
#785000
1!
18
1P
#790000
0!
08
0P
#795000
1!
18
1P
#800000
0!
08
0P
#805000
1!
18
1P
#810000
0!
08
0P
#815000
1!
18
1P
#820000
0!
08
0P
#825000
1!
18
1P
#830000
0!
08
0P
#835000
1!
18
1P
#840000
0!
08
0P
#845000
1!
18
1P
#850000
0!
08
0P
#855000
1!
18
1P
#860000
0!
08
0P
#865000
1!
18
1P
#870000
0!
08
0P
#875000
1!
18
1P
#880000
0!
08
0P
#885000
1!
18
1P
#890000
0!
08
0P
#895000
1!
18
1P
#900000
0!
08
0P
#905000
1!
18
1P
#910000
0!
08
0P
#915000
1!
18
1P
#920000
0!
08
0P
#925000
1!
18
1P
#930000
0!
08
0P
#935000
1!
18
1P
#940000
0!
08
0P
#945000
1!
18
1P
#950000
0!
08
0P
#955000
1!
18
1P
#960000
0!
08
0P
#965000
1!
18
1P
#970000
0!
08
0P
#975000
1!
18
1P
#980000
0!
08
0P
#985000
1!
18
1P
#990000
0!
08
0P
#995000
1!
18
1P
