motorfive/simulation/qsim/motorfive.msim.vcd
$comment
	File created using the following command:
		vcd file motorfive.msim.vcd -direction
$end
$date
	Fri Feb 10 12:29:36 2023
$end
$version
	ModelSim Version 10.5b
$end
$timescale
	1ps
$end

$scope module motorfive_vhd_vec_tst $end
$var wire 1 ! brightness $end
$var wire 1 " clk $end
$var wire 1 # display_c [6] $end
$var wire 1 $ display_c [5] $end
$var wire 1 % display_c [4] $end
$var wire 1 & display_c [3] $end
$var wire 1 ' display_c [2] $end
$var wire 1 ( display_c [1] $end
$var wire 1 ) display_c [0] $end
$var wire 1 * display_d [6] $end
$var wire 1 + display_d [5] $end
$var wire 1 , display_d [4] $end
$var wire 1 - display_d [3] $end
$var wire 1 . display_d [2] $end
$var wire 1 / display_d [1] $end
$var wire 1 0 display_d [0] $end
$var wire 1 1 display_u [6] $end
$var wire 1 2 display_u [5] $end
$var wire 1 3 display_u [4] $end
$var wire 1 4 display_u [3] $end
$var wire 1 5 display_u [2] $end
$var wire 1 6 display_u [1] $end
$var wire 1 7 display_u [0] $end
$var wire 1 8 led_green $end
$var wire 1 9 led_red $end
$var wire 1 : motor $end
$var wire 1 ; speed_down $end
$var wire 1 < speed_up $end
$var wire 1 = start_stop $end

$scope module i1 $end
$var wire 1 > gnd $end
$var wire 1 ? vcc $end
$var wire 1 @ unknown $end
$var wire 1 A devoe $end
$var wire 1 B devclrn $end
$var wire 1 C devpor $end
$var wire 1 D ww_devoe $end
$var wire 1 E ww_devclrn $end
$var wire 1 F ww_devpor $end
$var wire 1 G ww_clk $end
$var wire 1 H ww_speed_up $end
$var wire 1 I ww_speed_down $end
$var wire 1 J ww_start_stop $end
$var wire 1 K ww_brightness $end
$var wire 1 L ww_motor $end
$var wire 1 M ww_led_green $end
$var wire 1 N ww_led_red $end
$var wire 1 O ww_display_c [6] $end
$var wire 1 P ww_display_c [5] $end
$var wire 1 Q ww_display_c [4] $end
$var wire 1 R ww_display_c [3] $end
$var wire 1 S ww_display_c [2] $end
$var wire 1 T ww_display_c [1] $end
$var wire 1 U ww_display_c [0] $end
$var wire 1 V ww_display_d [6] $end
$var wire 1 W ww_display_d [5] $end
$var wire 1 X ww_display_d [4] $end
$var wire 1 Y ww_display_d [3] $end
$var wire 1 Z ww_display_d [2] $end
$var wire 1 [ ww_display_d [1] $end
$var wire 1 \ ww_display_d [0] $end
$var wire 1 ] ww_display_u [6] $end
$var wire 1 ^ ww_display_u [5] $end
$var wire 1 _ ww_display_u [4] $end
$var wire 1 ` ww_display_u [3] $end
$var wire 1 a ww_display_u [2] $end
$var wire 1 b ww_display_u [1] $end
$var wire 1 c ww_display_u [0] $end
$var wire 1 d \motor~output_o\ $end
$var wire 1 e \led_green~output_o\ $end
$var wire 1 f \led_red~output_o\ $end
$var wire 1 g \display_c[0]~output_o\ $end
$var wire 1 h \display_c[1]~output_o\ $end
$var wire 1 i \display_c[2]~output_o\ $end
$var wire 1 j \display_c[3]~output_o\ $end
$var wire 1 k \display_c[4]~output_o\ $end
$var wire 1 l \display_c[5]~output_o\ $end
$var wire 1 m \display_c[6]~output_o\ $end
$var wire 1 n \display_d[0]~output_o\ $end
$var wire 1 o \display_d[1]~output_o\ $end
$var wire 1 p \display_d[2]~output_o\ $end
$var wire 1 q \display_d[3]~output_o\ $end
$var wire 1 r \display_d[4]~output_o\ $end
$var wire 1 s \display_d[5]~output_o\ $end
$var wire 1 t \display_d[6]~output_o\ $end
$var wire 1 u \display_u[0]~output_o\ $end
$var wire 1 v \display_u[1]~output_o\ $end
$var wire 1 w \display_u[2]~output_o\ $end
$var wire 1 x \display_u[3]~output_o\ $end
$var wire 1 y \display_u[4]~output_o\ $end
$var wire 1 z \display_u[5]~output_o\ $end
$var wire 1 { \display_u[6]~output_o\ $end
$var wire 1 | \clk~input_o\ $end
$var wire 1 } \start_stop~input_o\ $end
$var wire 1 ~ \ONOFF|antirrebotestartstop|delay1~0_combout\ $end
$var wire 1 !! \ONOFF|antirrebotestartstop|delay1~q\ $end
$var wire 1 "! \ONOFF|antirrebotestartstop|delay2~q\ $end
$var wire 1 #! \ONOFF|antirrebotestartstop|delay3~q\ $end
$var wire 1 $! \ONOFF|antirrebotestartstop|pb_db~0_combout\ $end
$var wire 1 %! \ONOFF|detflancostartstop|s_q~q\ $end
$var wire 1 &! \ONOFF|on_off~0_combout\ $end
$var wire 1 '! \ONOFF|on_off~1_combout\ $end
$var wire 1 (! \ONOFF|on_off~q\ $end
$var wire 1 )! \speed_down~input_o\ $end
$var wire 1 *! \CONTROLVEL|antirrebotedown|delay1~0_combout\ $end
$var wire 1 +! \CONTROLVEL|antirrebotedown|delay1~q\ $end
$var wire 1 ,! \CONTROLVEL|antirrebotedown|delay2~q\ $end
$var wire 1 -! \CONTROLVEL|antirrebotedown|delay3~q\ $end
$var wire 1 .! \CONTROLVEL|antirrebotedown|pb_db~0_combout\ $end
$var wire 1 /! \CONTROLVEL|detflancodown|s_q~q\ $end
$var wire 1 0! \CONTROLVEL|CONTADOR|process_0~0_combout\ $end
$var wire 1 1! \speed_up~input_o\ $end
$var wire 1 2! \CONTROLVEL|antirreboteup|delay1~0_combout\ $end
$var wire 1 3! \CONTROLVEL|antirreboteup|delay1~q\ $end
$var wire 1 4! \CONTROLVEL|antirreboteup|delay2~q\ $end
$var wire 1 5! \CONTROLVEL|antirreboteup|delay3~q\ $end
$var wire 1 6! \CONTROLVEL|antirreboteup|pb_db~0_combout\ $end
$var wire 1 7! \CONTROLVEL|detflancoup|s_q~q\ $end
$var wire 1 8! \CONTROLVEL|CONTADOR|process_0~1_combout\ $end
$var wire 1 9! \CONTROLVEL|CONTADOR|cuenta[1]~2_combout\ $end
$var wire 1 :! \CONTROLVEL|CONTADOR|process_0~2_combout\ $end
$var wire 1 ;! \CONTROLVEL|CONTADOR|cuenta[1]~3_combout\ $end
$var wire 1 <! \CONTROLVEL|CONTADOR|cuenta[2]~4_combout\ $end
$var wire 1 =! \CONTROLVEL|CONTADOR|cuenta[2]~5_combout\ $end
$var wire 1 >! \CONTROLVEL|CONTADOR|cuenta[2]~6_combout\ $end
$var wire 1 ?! \CONTROLVEL|CONTADOR|cuenta~0_combout\ $end
$var wire 1 @! \CONTROLVEL|CONTADOR|cuenta[0]~1_combout\ $end
$var wire 1 A! \MUXDISPLAY|Equal4~0_combout\ $end
$var wire 1 B! \PWMMOTOR|Add0~0_combout\ $end
$var wire 1 C! \PWMMOTOR|Add0~9\ $end
$var wire 1 D! \PWMMOTOR|Add0~10_combout\ $end
$var wire 1 E! \PWMMOTOR|cuenta_f_20~2_combout\ $end
$var wire 1 F! \PWMMOTOR|Equal0~0_combout\ $end
$var wire 1 G! \PWMMOTOR|Equal0~1_combout\ $end
$var wire 1 H! \PWMMOTOR|cuenta_f_20~1_combout\ $end
$var wire 1 I! \PWMMOTOR|Add0~1\ $end
$var wire 1 J! \PWMMOTOR|Add0~2_combout\ $end
$var wire 1 K! \PWMMOTOR|cuenta_f_20~3_combout\ $end
$var wire 1 L! \PWMMOTOR|Add0~3\ $end
$var wire 1 M! \PWMMOTOR|Add0~4_combout\ $end
$var wire 1 N! \PWMMOTOR|Add0~5\ $end
$var wire 1 O! \PWMMOTOR|Add0~6_combout\ $end
$var wire 1 P! \PWMMOTOR|Add0~7\ $end
$var wire 1 Q! \PWMMOTOR|Add0~8_combout\ $end
$var wire 1 R! \PWMMOTOR|cuenta_f_20~0_combout\ $end
$var wire 1 S! \PWMMOTOR|clk_20kHz_60~0_combout\ $end
$var wire 1 T! \PWMMOTOR|clk_20kHz_60~1_combout\ $end
$var wire 1 U! \PWMMOTOR|clk_20kHz_60~2_combout\ $end
$var wire 1 V! \PWMMOTOR|clk_20kHz_60~q\ $end
$var wire 1 W! \PWMMOTOR|clk_20kHz_40~0_combout\ $end
$var wire 1 X! \PWMMOTOR|clk_20kHz_40~1_combout\ $end
$var wire 1 Y! \PWMMOTOR|clk_20kHz_40~2_combout\ $end
$var wire 1 Z! \PWMMOTOR|clk_20kHz_40~q\ $end
$var wire 1 [! \PWMMOTOR|clk_20kHz_20~0_combout\ $end
$var wire 1 \! \PWMMOTOR|clk_20kHz_20~1_combout\ $end
$var wire 1 ]! \PWMMOTOR|clk_20kHz_20~q\ $end
$var wire 1 ^! \MUXMOTOR|v_motor~0_combout\ $end
$var wire 1 _! \PWMMOTOR|clk_20kHz_80~0_combout\ $end
$var wire 1 `! \PWMMOTOR|clk_20kHz_80~1_combout\ $end
$var wire 1 a! \PWMMOTOR|clk_20kHz_80~q\ $end
$var wire 1 b! \MUXMOTOR|v_motor~1_combout\ $end
$var wire 1 c! \MUXMOTOR|v_motor~2_combout\ $end
$var wire 1 d! \PWMBRILLO|cuenta_f_10~3_combout\ $end
$var wire 1 e! \PWMBRILLO|cuenta_f_10[2]~1_combout\ $end
$var wire 1 f! \PWMBRILLO|cuenta_f_10~2_combout\ $end
$var wire 1 g! \PWMBRILLO|cuenta_f_10~0_combout\ $end
$var wire 1 h! \PWMBRILLO|clk_100kHz_50~0_combout\ $end
$var wire 1 i! \PWMBRILLO|Equal0~0_combout\ $end
$var wire 1 j! \PWMBRILLO|clk_100kHz_50~1_combout\ $end
$var wire 1 k! \PWMBRILLO|clk_100kHz_50~q\ $end
$var wire 1 l! \CONTROLBRILLO|CONTADORBRILLO|cuenta~2_combout\ $end
$var wire 1 m! \brightness~input_o\ $end
$var wire 1 n! \CONTROLBRILLO|antirrebotebrillo|delay1~0_combout\ $end
$var wire 1 o! \CONTROLBRILLO|antirrebotebrillo|delay1~q\ $end
$var wire 1 p! \CONTROLBRILLO|antirrebotebrillo|delay2~q\ $end
$var wire 1 q! \CONTROLBRILLO|antirrebotebrillo|delay3~q\ $end
$var wire 1 r! \CONTROLBRILLO|antirrebotebrillo|pb_db~0_combout\ $end
$var wire 1 s! \CONTROLBRILLO|detflancobrightness|s_q~q\ $end
$var wire 1 t! \CONTROLBRILLO|detflancobrightness|S~0_combout\ $end
$var wire 1 u! \CONTROLBRILLO|CONTADORBRILLO|cuenta~1_combout\ $end
$var wire 1 v! \CONTROLBRILLO|CONTADORBRILLO|cuenta~0_combout\ $end
$var wire 1 w! \PWMBRILLO|clk_100kHz_20~0_combout\ $end
$var wire 1 x! \PWMBRILLO|clk_100kHz_20~1_combout\ $end
$var wire 1 y! \PWMBRILLO|clk_100kHz_20~q\ $end
$var wire 1 z! \PWMBRILLO|clk_100kHz_10~0_combout\ $end
$var wire 1 {! \PWMBRILLO|clk_100kHz_10~q\ $end
$var wire 1 |! \MUXBRILLO|v_motor~0_combout\ $end
$var wire 1 }! \PWMBRILLO|clk_100kHz_80~0_combout\ $end
$var wire 1 ~! \PWMBRILLO|clk_100kHz_80~1_combout\ $end
$var wire 1 !" \PWMBRILLO|clk_100kHz_80~q\ $end
$var wire 1 "" \MUXBRILLO|v_motor~1_combout\ $end
$var wire 1 #" \MUXBRILLO|v_motor~2_combout\ $end
$var wire 1 $" \DISPLAY|decenas\ [6] $end
$var wire 1 %" \DISPLAY|decenas\ [5] $end
$var wire 1 &" \DISPLAY|decenas\ [4] $end
$var wire 1 '" \DISPLAY|decenas\ [3] $end
$var wire 1 (" \DISPLAY|decenas\ [2] $end
$var wire 1 )" \DISPLAY|decenas\ [1] $end
$var wire 1 *" \DISPLAY|decenas\ [0] $end
$var wire 1 +" \CONTROLVEL|CONTADOR|cuenta\ [2] $end
$var wire 1 ," \CONTROLVEL|CONTADOR|cuenta\ [1] $end
$var wire 1 -" \CONTROLVEL|CONTADOR|cuenta\ [0] $end
$var wire 1 ." \CONTROLBRILLO|CONTADORBRILLO|cuenta\ [2] $end
$var wire 1 /" \CONTROLBRILLO|CONTADORBRILLO|cuenta\ [1] $end
$var wire 1 0" \CONTROLBRILLO|CONTADORBRILLO|cuenta\ [0] $end
$var wire 1 1" \PWMMOTOR|cuenta_f_20\ [5] $end
$var wire 1 2" \PWMMOTOR|cuenta_f_20\ [4] $end
$var wire 1 3" \PWMMOTOR|cuenta_f_20\ [3] $end
$var wire 1 4" \PWMMOTOR|cuenta_f_20\ [2] $end
$var wire 1 5" \PWMMOTOR|cuenta_f_20\ [1] $end
$var wire 1 6" \PWMMOTOR|cuenta_f_20\ [0] $end
$var wire 1 7" \PWMBRILLO|cuenta_f_10\ [3] $end
$var wire 1 8" \PWMBRILLO|cuenta_f_10\ [2] $end
$var wire 1 9" \PWMBRILLO|cuenta_f_10\ [1] $end
$var wire 1 :" \PWMBRILLO|cuenta_f_10\ [0] $end
$var wire 1 ;" \DISPLAY|centenas\ [6] $end
$var wire 1 <" \DISPLAY|centenas\ [5] $end
$var wire 1 =" \DISPLAY|centenas\ [4] $end
$var wire 1 >" \DISPLAY|centenas\ [3] $end
$var wire 1 ?" \DISPLAY|centenas\ [2] $end
$var wire 1 @" \DISPLAY|centenas\ [1] $end
$var wire 1 A" \DISPLAY|centenas\ [0] $end
$var wire 1 B" \MUXBRILLO|ALT_INV_v_motor~2_combout\ $end
$var wire 1 C" \ONOFF|ALT_INV_on_off~q\ $end
$upscope $end
$upscope $end
$enddefinitions $end
#0
$dumpvars
1!
0"
08
19
0:
1;
1<
1=
0>
1?
x@
1A
1B
1C
1D
1E
1F
0G
1H
1I
1J
1K
0L
0M
1N
0d
0e
1f
1g
1h
1i
1j
1k
1l
1m
1n
1o
1p
1q
1r
1s
1t
1u
1v
1w
1x
1y
1z
1{
0|
1}
0~
0!!
0"!
0#!
1$!
0%!
0&!
0'!
0(!
1)!
0*!
0+!
0,!
0-!
1.!
0/!
00!
11!
02!
03!
04!
05!
16!
07!
08!
19!
0:!
0;!
0<!
0=!
0>!
0?!
0@!
1A!
1B!
0C!
0D!
0E!
0F!
0G!
1H!
0I!
0J!
0K!
1L!
0M!
0N!
0O!
1P!
0Q!
0R!
0S!
0T!
0U!
0V!
0W!
0X!
0Y!
0Z!
0[!
0\!
0]!
0^!
1_!
0`!
0a!
0b!
0c!
0d!
0e!
0f!
1g!
0h!
0i!
0j!
0k!
0l!
1m!
0n!
0o!
0p!
0q!
1r!
0s!
0t!
1u!
0v!
0w!
0x!
0y!
0z!
0{!
0|!
0}!
0~!
0!"
0""
0#"
1B"
1C"
1O
1P
1Q
1R
1S
1T
1U
1V
1W
1X
1Y
1Z
1[
1\
1]
1^
1_
1`
1a
1b
1c
x$"
x%"
x&"
x'"
1("
1)"
1*"
0+"
0,"
0-"
0."
0/"
00"
01"
02"
03"
04"
05"
06"
07"
08"
09"
0:"
1;"
x<"
x="
x>"
x?"
x@"
1A"
1#
1$
1%
1&
1'
1(
1)
1*
1+
1,
1-
1.
1/
10
11
12
13
14
15
16
17
$end
#5000
1"
1G
1|
1%!
1/!
17!
16"
1:"
1s!
1d!
0g!
0B!
1I!
1J!
0H!
1K!
#10000
0"
0G
0|
#15000
1"
1G
1|
06"
15"
19"
0:"
1g!
1}!
0J!
0L!
1B!
0I!
1J!
1L!
1H!
1M!
0K!
1~!
0M!
1K!
#20000
0"
0G
0|
#25000
1"
1G
1|
16"
1:"
1!"
0d!
1e!
0g!
0}!
0B!
1I!
0J!
0L!
0H!
1M!
0K!
#30000
0"
0G
0|
#35000
1"
1G
1|
06"
05"
14"
09"
18"
0:"
1g!
0M!
1N!
0_!
1J!
1L!
1T!
1B!
0I!
0J!
1H!
1M!
0N!
1K!
1O!
0O!
0K!
#40000
0"
0G
0|
#45000
1"
1G
1|
16"
1:"
1d!
0g!
1h!
0B!
1I!
1J!
0H!
1j!
1K!
#50000
0"
0G
0|
#55000
1"
1G
1|
06"
15"
19"
0:"
1k!
1g!
0h!
0J!
0L!
0T!
1B!
0I!
1J!
1L!
1H!
0M!
1N!
0K!
1O!
1M!
0N!
1K!
0O!
#60000
0"
0G
0|
#65000
1"
1G
1|
16"
1:"
0d!
0e!
1f!
0g!
0B!
1I!
0J!
0L!
0H!
0M!
1N!
0K!
1O!
#70000
0"
0G
0|
#75000
1"
1G
1|
06"
05"
04"
13"
09"
08"
17"
0:"
1g!
1w!
0O!
0P!
1M!
0N!
1_!
1J!
1L!
1B!
0I!
0J!
1H!
0M!
1K!
1O!
1P!
1Q!
1x!
1R!
0Q!
0K!
0R!
#80000
0"
0=
0G
0J
0}
0|
1~
#85000
1"
1G
1|
1!!
16"
1:"
1y!
1d!
0g!
1z!
0B!
1I!
1J!
0H!
1K!
#90000
0"
0G
0|
#95000
1"
1G
1|
1"!
06"
15"
19"
0:"
1{!
1|!
0d!
0f!
1i!
0w!
0J!
0L!
1B!
0I!
1W!
1&!
1`!
1J!
1L!
1H!
1M!
0K!
0j!
0x!
0z!
0~!
1""
1#"
0M!
1K!
0B"
0A"
0*"
0)"
0h
0i
0u
0v
0w
0x
0y
0z
0o
0n
0q
0r
0g
0j
0k
0l
0t
0T
0S
0c
0b
0a
0`
0_
0^
0[
0\
0Y
0X
0U
0R
0Q
0P
0V
0(
0'
07
06
05
04
03
02
00
0/
0-
0,
0*
0)
0&
0%
0$
#100000
0"
0G
0|
#105000
1"
1G
1|
1#!
16"
1a!
09"
07"
0k!
0y!
0{!
0!"
0|!
1g!
0i!
0B!
1I!
0W!
0$!
1'!
0J!
0L!
0H!
0""
0#"
1M!
0K!
1B"
1A"
1*"
1)"
1h
1i
1u
1v
1w
1x
1y
1z
1o
1n
1q
1r
1g
1j
1k
1l
1t
1T
1S
1c
1b
1a
1`
1_
1^
1[
1\
1Y
1X
1U
1R
1Q
1P
1V
1(
1'
17
16
15
14
13
12
10
1/
1-
1,
1*
1)
1&
1%
1$
#110000
0"
0G
0|
#115000
1"
1G
1|
0%!
1(!
06"
05"
14"
1:"
0C"
1e
1d!
0g!
0M!
1N!
0_!
1J!
1L!
1T!
1B!
0I!
0f
1M
0J!
1H!
1M!
0N!
1K!
0O!
0P!
0N
18
09
1Q!
1O!
1P!
0K!
0Q!
1R!
0R!
#120000
0"
0G
0|
#125000
1"
1G
1|
16"
19"
0:"
1g!
1}!
0B!
1I!
1J!
0H!
1~!
1K!
#130000
0"
0G
0|
#135000
1"
1G
1|
06"
15"
1:"
1!"
0d!
1e!
0g!
0}!
0J!
0L!
0T!
1B!
0I!
1W!
1J!
1L!
1H!
0M!
1N!
0K!
0O!
0P!
1M!
0N!
1K!
1O!
1P!
1Q!
1R!
0Q!
0R!
#140000
0"
0G
0|
#145000
1"
1G
1|
16"
09"
18"
0:"
1g!
0B!
1I!
0W!
0J!
0L!
0H!
0M!
1N!
0K!
0O!
0P!
1Q!
1R!
#150000
0"
0G
0|
#155000
1"
1G
1|
06"
05"
04"
03"
12"
1:"
1d!
0g!
1h!
0Q!
1C!
1O!
1P!
1M!
0N!
1J!
1L!
1B!
0I!
1S!
0J!
1H!
0M!
1K!
0O!
1Q!
0C!
1D!
0R!
1j!
1E!
0D!
1R!
0K!
0E!
#160000
0"
1=
0G
1J
1}
0|
0~
#165000
1"
1G
1|
0!!
16"
19"
0:"
1k!
1g!
0h!
0B!
1I!
0S!
1$!
0&!
1J!
0H!
1K!
#170000
0"
0G
0|
#175000
1"
1G
1|
0"!
1%!
06"
15"
1:"
0d!
0e!
1f!
0g!
0J!
0L!
1B!
0I!
1S!
1J!
1L!
1H!
1M!
0K!
0M!
1K!
#180000
0"
0G
0|
#185000
1"
1G
1|
0#!
16"
09"
08"
17"
0:"
1g!
1w!
0B!
1I!
0S!
0J!
0L!
0H!
1x!
1M!
0K!
#190000
0"
0G
0|
#195000
1"
1G
1|
06"
05"
14"
1:"
1y!
1d!
0g!
1z!
0M!
1N!
1X!
1J!
1L!
1T!
1B!
0I!
1S!
0J!
1H!
1U!
1M!
0N!
1K!
1O!
0O!
0K!
#200000
0"
0G
0|
#205000
1"
1G
1|
16"
1V!
19"
0:"
1{!
1|!
0d!
0f!
1i!
0w!
0B!
1I!
0S!
1J!
0H!
0j!
0x!
0z!
0~!
1""
1#"
1K!
0B"
0A"
0*"
0)"
0h
0i
0u
0v
0w
0x
0y
0z
0o
0n
0q
0r
0g
0j
0k
0l
0t
0T
0S
0c
0b
0a
0`
0_
0^
0[
0\
0Y
0X
0U
0R
0Q
0P
0V
0(
0'
07
06
05
04
03
02
00
0/
0-
0,
0*
0)
0&
0%
0$
#210000
0"
0G
0|
#215000
1"
1G
1|
06"
15"
09"
07"
0k!
0y!
0{!
0!"
0|!
1g!
0i!
0J!
0L!
0T!
1B!
0I!
1S!
1J!
1L!
1H!
0M!
1N!
0K!
0""
0#"
1O!
1M!
0N!
1K!
1B"
0O!
1A"
1*"
1)"
1h
1i
1u
1v
1w
1x
1y
1z
1o
1n
1q
1r
1g
1j
1k
1l
1t
1T
1S
1c
1b
1a
1`
1_
1^
1[
1\
1Y
1X
1U
1R
1Q
1P
1V
1(
1'
17
16
15
14
13
12
10
1/
1-
1,
1*
1)
1&
1%
1$
#220000
0"
0G
0|
#225000
1"
1G
1|
16"
1:"
1d!
0g!
0B!
1I!
0S!
0J!
0L!
0H!
0M!
1N!
0K!
1O!
#230000
0"
0G
0|
#235000
1"
1G
1|
06"
05"
04"
13"
19"
0:"
1g!
1}!
0O!
0P!
1M!
0N!
0X!
1J!
1L!
1B!
0I!
0J!
1H!
0M!
1K!
1O!
1P!
0Q!
1C!
1~!
1D!
0R!
1Q!
0C!
0K!
0D!
1R!
1E!
0E!
#240000
0"
0!
0G
0K
0m!
0|
1n!
#245000
1"
1G
1|
16"
1:"
1o!
1!"
0d!
1e!
0g!
0}!
0B!
1I!
1J!
0H!
1K!
#250000
0"
0G
0|
#255000
1"
1G
1|
06"
15"
09"
18"
0:"
1p!
1g!
0J!
0L!
1B!
0I!
1W!
1J!
1L!
1H!
1M!
0K!
0M!
1K!
#260000
0"
0G
0|
#265000
1"
1G
1|
16"
1:"
1q!
0r!
1t!
1d!
0g!
1h!
0B!
1I!
0W!
0J!
0L!
0H!
1j!
1M!
0K!
#270000
0"
0G
0|
#275000
1"
1G
1|
06"
05"
14"
19"
0:"
1k!
0s!
10"
0u!
1v!
0t!
1g!
0h!
0M!
1N!
1X!
1J!
1L!
1T!
1B!
0I!
0J!
1H!
1M!
0N!
1K!
0O!
0P!
0Q!
1C!
1O!
1P!
0K!
1Q!
0C!
1D!
0R!
1E!
0D!
1R!
0E!
#280000
0"
0G
0|
#285000
1"
1G
1|
16"
1:"
0d!
0e!
1f!
0g!
0B!
1I!
1J!
0H!
1K!
#290000
0"
0G
0|
#295000
1"
1G
1|
06"
15"
09"
08"
17"
0:"
1g!
1w!
0J!
0L!
0T!
1B!
0I!
1W!
1Y!
1J!
1L!
1H!
0M!
1N!
0K!
1x!
0O!
0P!
1M!
0N!
1K!
1O!
1P!
0Q!
1C!
1D!
0R!
1Q!
0C!
0D!
1R!
1E!
0E!
#300000
0"
0G
0|
#305000
1"
1G
1|
16"
1Z!
1:"
1y!
1|!
1d!
0g!
1z!
0B!
1I!
0W!
0J!
0L!
0H!
1""
1#"
0M!
1N!
0K!
0B"
0O!
0P!
0A"
0*"
0)"
0h
0i
0u
0v
0w
0x
0y
0z
0o
0n
0q
0r
0g
0j
0k
0l
0t
0Q!
1C!
0T
0S
0c
0b
0a
0`
0_
0^
0[
0\
0Y
0X
0U
0R
0Q
0P
0V
0(
0'
07
06
05
04
03
02
1D!
0R!
00
0/
0-
0,
0*
0)
0&
0%
0$
1E!
#310000
0"
0G
0|
#315000
1"
1G
1|
11"
06"
05"
04"
03"
02"
19"
0:"
1{!
0d!
0f!
1i!
0w!
1Q!
0C!
1O!
1P!
1M!
0N!
0X!
1_!
1J!
1L!
1B!
0I!
0D!
1F!
0E!
0J!
1H!
0M!
1K!
0O!
0Q!
1D!
1R!
0j!
0x!
0z!
0~!
1E!
0R!
0K!
#320000
0"
1!
0G
1K
1m!
0|
0n!
#325000
1"
1G
1|
16"
09"
07"
0k!
0o!
0y!
0{!
0!"
0|!
1r!
1g!
0i!
0B!
1I!
0F!
1J!
0H!
0""
0#"
1K!
1B"
1A"
1*"
1)"
1h
1i
1u
1v
1w
1x
1y
1z
1o
1n
1q
1r
1g
1j
1k
1l
1t
1T
1S
1c
1b
1a
1`
1_
1^
1[
1\
1Y
1X
1U
1R
1Q
1P
1V
1(
1'
17
16
15
14
13
12
10
1/
1-
1,
1*
1)
1&
1%
1$
#330000
0"
0G
0|
#335000
1"
1G
1|
06"
15"
1:"
0p!
1s!
1d!
0g!
0J!
0L!
1B!
0I!
1F!
1J!
1L!
1H!
1M!
0K!
0M!
1K!
#340000
0"
0G
0|
#345000
1"
1G
1|
16"
19"
0:"
0q!
1g!
1}!
0B!
1I!
0F!
0J!
0L!
0H!
1~!
1M!
0K!
#350000
0"
0G
0|
#355000
1"
1G
1|
06"
05"
14"
1:"
1!"
0d!
1e!
0g!
0}!
0M!
1N!
0_!
1J!
1L!
1T!
1B!
0I!
0J!
1H!
1M!
0N!
1K!
1O!
0O!
0K!
#360000
0"
0G
0|
#365000
1"
1G
1|
16"
09"
18"
0:"
1g!
0B!
1I!
1J!
0H!
1K!
#370000
0"
0G
0|
#375000
1"
1G
1|
06"
15"
1:"
1d!
0g!
1h!
0J!
0L!
0T!
1B!
0I!
1J!
1L!
1H!
0M!
1N!
0K!
1j!
1O!
1M!
0N!
1K!
0O!
#380000
0"
0G
0|
#385000
1"
1G
1|
16"
19"
0:"
1k!
1g!
0h!
0B!
1I!
0J!
0L!
0H!
0M!
1N!
0K!
1O!
#390000
0"
0G
0|
#395000
1"
1G
1|
06"
05"
04"
13"
1:"
0d!
0e!
1f!
0g!
0O!
0P!
1M!
0N!
1_!
1J!
1L!
1B!
0I!
1F!
1[!
0J!
1H!
0M!
1K!
1O!
1P!
1Q!
1R!
0Q!
0K!
1\!
0R!
#400000
0"
0!
0G
0K
0m!
0|
1n!
#405000
1"
1G
1|
16"
1]!
09"
08"
17"
0:"
1o!
1g!
1w!
1^!
0B!
1I!
0F!
0[!
1J!
0H!
1b!
1x!
1c!
1K!
1d
1L
1:
#410000
0"
0G
0|
#415000
1"
1G
1|
06"
15"
1:"
1p!
1y!
1|!
1d!
0g!
1z!
0J!
0L!
1B!
0I!
1F!
1J!
1L!
1H!
1M!
0K!
1""
1#"
0M!
1K!
0B"
0A"
0*"
0)"
0h
0i
0u
0v
0w
0x
0y
0z
0o
0n
0q
0r
0g
0j
0k
0l
0t
0T
0S
0c
0b
0a
0`
0_
0^
0[
0\
0Y
0X
0U
0R
0Q
0P
0V
0(
0'
07
06
05
04
03
02
00
0/
0-
0,
0*
0)
0&
0%
0$
#420000
0"
0G
0|
#425000
1"
1G
1|
16"
19"
0:"
1q!
1{!
0r!
1t!
0d!
0f!
1i!
0w!
0B!
1I!
0F!
0J!
0L!
0H!
0j!
0x!
0z!
0~!
1M!
0K!
#430000
0"
0G
0|
#435000
1"
1G
1|
06"
05"
14"
09"
07"
0k!
0s!
00"
1/"
0y!
0{!
0!"
1u!
0|!
0t!
0""
1g!
0i!
0M!
1N!
0_!
1J!
1L!
1T!
1B!
0I!
0J!
1H!
1M!
0N!
1K!
0O!
0P!
0#"
1B"
1A"
1*"
1)"
1Q!
1O!
1P!
0K!
1h
1i
1u
1v
1w
1x
1y
1z
1o
1n
1q
1r
1g
1j
1k
1l
1t
0Q!
1R!
1T
1S
1c
1b
1a
1`
1_
1^
1[
1\
1Y
1X
1U
1R
1Q
1P
1V
1(
1'
17
16
15
14
13
12
0R!
10
1/
1-
1,
1*
1)
1&
1%
1$
#440000
0"
0G
0|
#445000
1"
1G
1|
16"
1:"
1d!
0g!
0B!
1I!
1J!
0H!
1K!
#450000
0"
0G
0|
#455000
1"
1G
1|
06"
15"
19"
0:"
1g!
1}!
0J!
0L!
0T!
1B!
0I!
1J!
1L!
1H!
0M!
1N!
0K!
1~!
0O!
0P!
1M!
0N!
1K!
1O!
1P!
1Q!
1R!
0Q!
0R!
#460000
0"
0G
0|
#465000
1"
1G
1|
16"
1:"
1!"
0d!
1e!
0g!
0}!
0B!
1I!
0J!
0L!
0H!
0M!
1N!
0K!
0O!
0P!
1Q!
1R!
#470000
0"
0G
0|
#475000
1"
1G
1|
06"
05"
04"
03"
12"
09"
18"
0:"
1g!
0Q!
1C!
1O!
1P!
1M!
0N!
1J!
1L!
1B!
0I!
1F!
0J!
1H!
0M!
1K!
0O!
1Q!
0C!
0D!
0R!
0E!
1D!
1R!
0K!
1E!
#480000
0"
1!
0G
1K
1m!
0|
0n!
#485000
1"
1G
1|
16"
1:"
0o!
1r!
1d!
0g!
1h!
0B!
1I!
0F!
1J!
0H!
1j!
1K!
#490000
0"
0G
0|
#495000
1"
1G
1|
06"
15"
19"
0:"
1k!
0p!
1s!
1""
1g!
0h!
0J!
0L!
1B!
0I!
1F!
1G!
1J!
1L!
1H!
1M!
0K!
1#"
0B"
0A"
0*"
0)"
0M!
0E!
0H!
0R!
0U!
0Y!
0\!
0`!
0h
0i
0u
0v
0w
0x
0y
0z
0o
0n
0q
0r
0g
0j
0k
0l
0t
0T
0S
0c
0b
0a
0`
0_
0^
0[
0\
0Y
0X
0U
0R
0Q
0P
0V
0(
0'
07
06
05
04
03
02
00
0/
0-
0,
0*
0)
0&
0%
0$
#500000
0"
0G
0|
#505000
1"
1G
1|
01"
05"
02"
0V!
0Z!
0]!
0a!
1:"
0q!
0d!
0e!
1f!
0g!
0^!
0Q!
1_!
0G!
0J!
0D!
0F!
1H!
0b!
0c!
0d
0L
0:
#510000
0"
0G
0|
#515000
1"
1G
1|
16"
09"
08"
17"
0:"
1g!
1w!
0B!
1I!
1J!
0H!
1x!
1K!
#520000
0"
0G
0|
#525000
1"
1G
1|
06"
15"
1:"
1y!
1d!
0g!
1z!
0J!
0L!
1B!
0I!
1J!
1L!
1H!
1M!
0K!
0M!
1K!
#530000
0"
0G
0|
