BTCar/simulation/qsim/BTCar.msim.vcd
$comment
	File created using the following command:
		vcd file BTCar.msim.vcd -direction
$end
$date
	Thu Nov 24 16:17:58 2022
$end
$version
	ModelSim Version 10.5b
$end
$timescale
	1ps
$end

$scope module btcar_vhd_vec_tst $end
$var wire 1 ! clk $end
$var wire 1 " clk_baud $end
$var wire 1 # data_recibida [7] $end
$var wire 1 $ data_recibida [6] $end
$var wire 1 % data_recibida [5] $end
$var wire 1 & data_recibida [4] $end
$var wire 1 ' data_recibida [3] $end
$var wire 1 ( data_recibida [2] $end
$var wire 1 ) data_recibida [1] $end
$var wire 1 * data_recibida [0] $end
$var wire 1 + enable_d $end
$var wire 1 , enable_i $end
$var wire 1 - in1 $end
$var wire 1 . in2 $end
$var wire 1 / in3 $end
$var wire 1 0 in4 $end
$var wire 1 1 rx $end

$scope module i1 $end
$var wire 1 2 gnd $end
$var wire 1 3 vcc $end
$var wire 1 4 unknown $end
$var wire 1 5 devoe $end
$var wire 1 6 devclrn $end
$var wire 1 7 devpor $end
$var wire 1 8 ww_devoe $end
$var wire 1 9 ww_devclrn $end
$var wire 1 : ww_devpor $end
$var wire 1 ; ww_clk $end
$var wire 1 < ww_rx $end
$var wire 1 = ww_in1 $end
$var wire 1 > ww_clk_baud $end
$var wire 1 ? ww_in2 $end
$var wire 1 @ ww_in3 $end
$var wire 1 A ww_in4 $end
$var wire 1 B ww_enable_i $end
$var wire 1 C ww_enable_d $end
$var wire 1 D ww_data_recibida [7] $end
$var wire 1 E ww_data_recibida [6] $end
$var wire 1 F ww_data_recibida [5] $end
$var wire 1 G ww_data_recibida [4] $end
$var wire 1 H ww_data_recibida [3] $end
$var wire 1 I ww_data_recibida [2] $end
$var wire 1 J ww_data_recibida [1] $end
$var wire 1 K ww_data_recibida [0] $end
$var wire 1 L \in1~output_o\ $end
$var wire 1 M \clk_baud~output_o\ $end
$var wire 1 N \in2~output_o\ $end
$var wire 1 O \in3~output_o\ $end
$var wire 1 P \in4~output_o\ $end
$var wire 1 Q \enable_i~output_o\ $end
$var wire 1 R \enable_d~output_o\ $end
$var wire 1 S \data_recibida[0]~output_o\ $end
$var wire 1 T \data_recibida[1]~output_o\ $end
$var wire 1 U \data_recibida[2]~output_o\ $end
$var wire 1 V \data_recibida[3]~output_o\ $end
$var wire 1 W \data_recibida[4]~output_o\ $end
$var wire 1 X \data_recibida[5]~output_o\ $end
$var wire 1 Y \data_recibida[6]~output_o\ $end
$var wire 1 Z \data_recibida[7]~output_o\ $end
$var wire 1 [ \clk~input_o\ $end
$var wire 1 \ \BAUDRATE|Add0~0_combout\ $end
$var wire 1 ] \BAUDRATE|Add0~7\ $end
$var wire 1 ^ \BAUDRATE|Add0~8_combout\ $end
$var wire 1 _ \BAUDRATE|counter~2_combout\ $end
$var wire 1 ` \BAUDRATE|Add0~9\ $end
$var wire 1 a \BAUDRATE|Add0~10_combout\ $end
$var wire 1 b \BAUDRATE|Add0~11\ $end
$var wire 1 c \BAUDRATE|Add0~12_combout\ $end
$var wire 1 d \BAUDRATE|counter~3_combout\ $end
$var wire 1 e \BAUDRATE|Equal0~1_combout\ $end
$var wire 1 f \BAUDRATE|Add0~13\ $end
$var wire 1 g \BAUDRATE|Add0~14_combout\ $end
$var wire 1 h \BAUDRATE|Add0~15\ $end
$var wire 1 i \BAUDRATE|Add0~16_combout\ $end
$var wire 1 j \BAUDRATE|Add0~17\ $end
$var wire 1 k \BAUDRATE|Add0~18_combout\ $end
$var wire 1 l \BAUDRATE|Add0~19\ $end
$var wire 1 m \BAUDRATE|Add0~20_combout\ $end
$var wire 1 n \BAUDRATE|counter~4_combout\ $end
$var wire 1 o \BAUDRATE|Add0~21\ $end
$var wire 1 p \BAUDRATE|Add0~22_combout\ $end
$var wire 1 q \BAUDRATE|Add0~23\ $end
$var wire 1 r \BAUDRATE|Add0~24_combout\ $end
$var wire 1 s \BAUDRATE|counter~5_combout\ $end
$var wire 1 t \BAUDRATE|Equal0~2_combout\ $end
$var wire 1 u \BAUDRATE|Equal0~3_combout\ $end
$var wire 1 v \BAUDRATE|counter~1_combout\ $end
$var wire 1 w \BAUDRATE|Add0~1\ $end
$var wire 1 x \BAUDRATE|Add0~2_combout\ $end
$var wire 1 y \BAUDRATE|Add0~3\ $end
$var wire 1 z \BAUDRATE|Add0~4_combout\ $end
$var wire 1 { \BAUDRATE|Add0~5\ $end
$var wire 1 | \BAUDRATE|Add0~6_combout\ $end
$var wire 1 } \BAUDRATE|counter~0_combout\ $end
$var wire 1 ~ \BAUDRATE|Equal0~0_combout\ $end
$var wire 1 !! \BAUDRATE|clock_signal~0_combout\ $end
$var wire 1 "! \BAUDRATE|clock_signal~1_combout\ $end
$var wire 1 #! \BAUDRATE|clock_signal~2_combout\ $end
$var wire 1 $! \BAUDRATE|clock_signal~3_combout\ $end
$var wire 1 %! \BAUDRATE|clock_signal~q\ $end
$var wire 1 &! \rx~input_o\ $end
$var wire 1 '! \ps.b5~q\ $end
$var wire 1 (! \ps.b6~q\ $end
$var wire 1 )! \ps.b7~q\ $end
$var wire 1 *! \ps.b8~q\ $end
$var wire 1 +! \ps~27_combout\ $end
$var wire 1 ,! \ps.ready~q\ $end
$var wire 1 -! \ps~25_combout\ $end
$var wire 1 .! \ps.b0~q\ $end
$var wire 1 /! \ps~24_combout\ $end
$var wire 1 0! \ps.b1~q\ $end
$var wire 1 1! \ps~26_combout\ $end
$var wire 1 2! \ps.b2~q\ $end
$var wire 1 3! \ps~23_combout\ $end
$var wire 1 4! \ps.b3~q\ $end
$var wire 1 5! \ps~22_combout\ $end
$var wire 1 6! \ps.b4~q\ $end
$var wire 1 7! \store~0_combout\ $end
$var wire 1 8! \store~1_combout\ $end
$var wire 1 9! \store~2_combout\ $end
$var wire 1 :! \store~3_combout\ $end
$var wire 1 ;! \Equal0~0_combout\ $end
$var wire 1 <! \store~4_combout\ $end
$var wire 1 =! \Equal0~1_combout\ $end
$var wire 1 >! \store~5_combout\ $end
$var wire 1 ?! \store~6_combout\ $end
$var wire 1 @! \store~7_combout\ $end
$var wire 1 A! \in1~0_combout\ $end
$var wire 1 B! \Equal3~0_combout\ $end
$var wire 1 C! \in3~2_combout\ $end
$var wire 1 D! \enable_i~0_combout\ $end
$var wire 1 E! \enable_d~0_combout\ $end
$var wire 1 F! store [7] $end
$var wire 1 G! store [6] $end
$var wire 1 H! store [5] $end
$var wire 1 I! store [4] $end
$var wire 1 J! store [3] $end
$var wire 1 K! store [2] $end
$var wire 1 L! store [1] $end
$var wire 1 M! store [0] $end
$var wire 1 N! \BAUDRATE|counter\ [12] $end
$var wire 1 O! \BAUDRATE|counter\ [11] $end
$var wire 1 P! \BAUDRATE|counter\ [10] $end
$var wire 1 Q! \BAUDRATE|counter\ [9] $end
$var wire 1 R! \BAUDRATE|counter\ [8] $end
$var wire 1 S! \BAUDRATE|counter\ [7] $end
$var wire 1 T! \BAUDRATE|counter\ [6] $end
$var wire 1 U! \BAUDRATE|counter\ [5] $end
$var wire 1 V! \BAUDRATE|counter\ [4] $end
$var wire 1 W! \BAUDRATE|counter\ [3] $end
$var wire 1 X! \BAUDRATE|counter\ [2] $end
$var wire 1 Y! \BAUDRATE|counter\ [1] $end
$var wire 1 Z! \BAUDRATE|counter\ [0] $end
$upscope $end
$upscope $end
$enddefinitions $end
#0
$dumpvars
0!
0"
0+
0,
0-
0.
0/
00
11
02
13
x4
15
16
17
18
19
1:
0;
1<
0=
0>
0?
0@
0A
0B
0C
0L
0M
0N
0O
0P
0Q
0R
0S
0T
0U
0V
0W
0X
0Y
0Z
0[
1\
1]
0^
0_
0`
0a
1b
0c
0d
0e
0f
0g
1h
0i
0j
0k
1l
0m
0n
0o
0p
1q
0r
0s
0t
0u
1v
0w
0x
1y
0z
0{
0|
0}
0~
0!!
0"!
0#!
0$!
0%!
1&!
0'!
0(!
0)!
0*!
0+!
0,!
0-!
0.!
0/!
00!
01!
02!
03!
04!
05!
06!
07!
08!
09!
0:!
0;!
0<!
0=!
0>!
0?!
0@!
0A!
0B!
0C!
0D!
0E!
0#
0$
0%
0&
0'
0(
0)
0*
0D
0E
0F
0G
0H
0I
0J
0K
0F!
0G!
0H!
0I!
0J!
0K!
0L!
0M!
0N!
0O!
0P!
0Q!
0R!
0S!
0T!
0U!
0V!
0W!
0X!
0Y!
0Z!
$end
#500
1!
1;
1[
1Z!
0\
1w
1x
0v
#1000
0!
0;
0[
#1500
1!
1;
1[
0Z!
1Y!
0x
0y
1\
0w
1x
1y
1v
1z
0z
#2000
0!
0;
0[
#2500
1!
1;
1[
1Z!
0\
1w
0x
0y
0v
1z
#3000
0!
0;
0[
#3500
1!
1;
1[
0Z!
0Y!
1X!
0z
1{
1x
1y
1\
0w
0x
1v
1z
0{
1|
1}
0|
0}
#4000
0!
0;
0[
#4500
1!
1;
1[
1Z!
0\
1w
1x
0v
#5000
0!
0;
0[
#5500
1!
1;
1[
0Z!
1Y!
0x
0y
1\
0w
1x
1y
1v
0z
1{
1|
1z
0{
0|
1}
0}
#6000
0!
0;
0[
#6500
1!
1;
1[
1Z!
0\
1w
0x
0y
0v
0z
1{
1|
1}
#7000
0!
0;
0[
#7500
1!
1;
1[
0Z!
0Y!
0X!
1W!
0|
0]
1z
0{
1x
1y
1\
0w
1~
0x
1v
0z
1|
1]
1^
0}
1_
0^
1}
0_
#8000
0!
0;
0[
#8500
1!
1;
1[
1Z!
0\
1w
0~
1x
0v
#9000
0!
0;
0[
#9500
1!
1;
1[
0Z!
1Y!
0x
0y
1\
0w
1x
1y
1v
1z
0z
#10000
0!
0;
0[
#10500
1!
1;
1[
1Z!
0\
1w
0x
0y
0v
1z
#11000
0!
0;
0[
#11500
1!
1;
1[
0Z!
0Y!
1X!
0z
1{
1x
1y
1\
0w
1~
0x
1v
1z
0{
0|
0]
1^
0}
1|
1]
0^
1}
1_
0_
#12000
0!
0;
0[
#12500
1!
1;
1[
1Z!
0\
1w
0~
1x
0v
#13000
0!
0;
0[
#13500
1!
1;
1[
0Z!
1Y!
0x
0y
1\
0w
1x
1y
1v
0z
1{
0|
0]
1z
0{
1|
1]
1^
0}
1_
0^
1}
0_
#14000
0!
0;
0[
#14500
1!
1;
1[
1Z!
0\
1w
0x
0y
0v
0z
1{
0|
0]
1^
0}
1_
#15000
0!
0;
0[
#15500
1!
1;
1[
1V!
0Z!
0Y!
0X!
0W!
1|
1]
1z
0{
1x
1y
1\
0w
0^
1`
1a
0_
0x
1v
0z
0|
1^
0`
1}
0a
1_
0}
#16000
0!
0;
0[
#16500
1!
1;
1[
1Z!
0\
1w
1x
0v
#17000
0!
0;
0[
#17500
1!
1;
1[
0Z!
1Y!
0x
0y
1\
0w
1x
1y
1v
1z
0z
#18000
0!
0;
0[
#18500
1!
1;
1[
1Z!
0\
1w
0x
0y
0v
1z
#19000
0!
0;
0[
#19500
1!
1;
1[
0Z!
0Y!
1X!
0z
1{
1x
1y
1\
0w
0x
1v
1z
0{
1|
1}
0|
0}
#20000
0!
0;
0[
#20500
1!
1;
1[
1Z!
0\
1w
1x
0v
#21000
0!
0;
0[
#21500
1!
1;
1[
0Z!
1Y!
0x
0y
1\
0w
1x
1y
1v
0z
1{
1|
1z
0{
0|
1}
0}
#22000
0!
0;
0[
#22500
1!
1;
1[
1Z!
0\
1w
0x
0y
0v
0z
1{
1|
1}
#23000
0!
0;
0[
#23500
1!
1;
1[
0Z!
0Y!
0X!
1W!
0|
0]
1z
0{
1x
1y
1\
0w
1~
0x
1v
0z
1|
1]
0^
1`
0}
1a
0_
1^
0`
1}
0a
1_
#24000
0!
0;
0[
#24500
1!
1;
1[
1Z!
0\
1w
0~
1x
0v
#25000
0!
0;
0[
#25500
1!
1;
1[
0Z!
1Y!
0x
0y
1\
0w
1x
1y
1v
1z
0z
#26000
0!
0;
0[
#26500
1!
1;
1[
1Z!
0\
1w
0x
0y
0v
1z
#27000
0!
0;
0[
#27500
1!
1;
1[
0Z!
0Y!
1X!
0z
1{
1x
1y
1\
0w
1~
0x
1v
1z
0{
0|
0]
0^
1`
0}
1|
1]
1^
0`
1}
1a
0_
0a
1_
#28000
0!
0;
0[
#28500
1!
1;
1[
1Z!
0\
1w
0~
1x
0v
#29000
0!
0;
0[
#29500
1!
1;
1[
0Z!
1Y!
0x
0y
1\
0w
1x
1y
1v
0z
1{
0|
0]
1z
0{
1|
1]
0^
1`
0}
1a
0_
1^
0`
1}
0a
1_
#30000
0!
0;
0[
#30500
1!
1;
1[
1Z!
0\
1w
0x
0y
0v
0z
1{
0|
0]
0^
1`
0}
1a
0_
#31000
0!
0;
0[
#31500
1!
1;
1[
0V!
1U!
0Z!
0Y!
0X!
0W!
1|
1]
1z
0{
1x
1y
1\
0w
0a
0b
1^
0`
1a
1b
1_
1c
0x
1v
0z
0|
0^
1}
0_
0}
1d
0c
0d
#32000
0!
0;
0[
#32500
1!
1;
1[
1Z!
0\
1w
1x
0v
#33000
0!
0;
0[
#33500
1!
1;
1[
0Z!
1Y!
0x
0y
1\
0w
1x
1y
1v
1z
0z
#34000
0!
0;
0[
#34500
1!
1;
1[
1Z!
0\
1w
0x
0y
0v
1z
#35000
0!
0;
0[
#35500
1!
1;
1[
0Z!
0Y!
1X!
0z
1{
1!!
1x
1y
1\
0w
0x
1v
1z
0{
1|
1}
0|
0}
#36000
0!
0;
0[
#36500
1!
1;
1[
1Z!
0\
1w
1x
0v
#37000
0!
0;
0[
#37500
1!
1;
1[
0Z!
1Y!
0x
0y
1\
0w
1x
1y
1v
0z
1{
1|
1z
0{
0|
1}
0}
#38000
0!
0;
0[
#38500
1!
1;
1[
1Z!
0\
1w
0x
0y
0v
0z
1{
1|
1}
#39000
0!
0;
0[
#39500
1!
1;
1[
0Z!
0Y!
0X!
1W!
0|
0]
1z
0{
0!!
1x
1y
1\
0w
1~
0x
1v
0z
1|
1]
1^
0}
1_
0^
1}
0_
#40000
0!
0;
0[
#40500
1!
1;
1[
1Z!
0\
1w
0~
1x
0v
#41000
0!
0;
0[
#41500
1!
1;
1[
0Z!
1Y!
0x
0y
1\
0w
1x
1y
1v
1z
0z
#42000
0!
0;
0[
#42500
1!
1;
1[
1Z!
0\
1w
0x
0y
0v
1z
#43000
0!
0;
0[
#43500
1!
1;
1[
0Z!
0Y!
1X!
0z
1{
1!!
1x
1y
1\
0w
1~
0x
1v
1z
0{
0|
0]
1^
0}
1|
1]
0^
1}
1_
0_
#44000
0!
0;
0[
#44500
1!
1;
1[
1Z!
0\
1w
0~
1x
0v
#45000
0!
0;
0[
#45500
1!
1;
1[
0Z!
1Y!
0x
0y
1\
0w
1x
1y
1v
0z
1{
0|
0]
1z
0{
1|
1]
1^
0}
1_
0^
1}
0_
#46000
0!
0;
0[
#46500
1!
1;
1[
1Z!
0\
1w
0x
0y
0v
0z
1{
0|
0]
1^
0}
1_
#47000
0!
0;
0[
#47500
1!
1;
1[
1V!
0Z!
0Y!
0X!
0W!
1|
1]
1z
0{
1x
1y
1\
0w
0^
1`
0!!
0a
0b
0_
0x
1v
0z
0|
1^
0`
1}
1a
1b
1_
0}
1c
1d
0c
0d
#48000
0!
0;
0[
#48500
1!
1;
1[
1Z!
0\
1w
1x
0v
#49000
0!
0;
0[
#49500
1!
1;
1[
0Z!
1Y!
0x
0y
1\
0w
1x
1y
1v
1z
0z
#50000
0!
01
0;
0<
0&!
0[
1+!
1-!
#50500
1!
1;
1[
1Z!
0\
1w
0x
0y
0v
1z
#51000
0!
0;
0[
#51500
1!
1;
1[
0Z!
0Y!
1X!
0z
1{
1x
1y
1\
0w
0x
1v
1z
0{
1|
1}
0|
0}
#52000
0!
0;
0[
#52500
1!
1;
1[
1Z!
0\
1w
1x
0v
#53000
0!
0;
0[
#53500
1!
1;
1[
0Z!
1Y!
0x
0y
1\
0w
1x
1y
1v
0z
1{
1|
1z
0{
0|
1}
0}
#54000
0!
0;
0[
#54500
1!
1;
1[
1Z!
0\
1w
0x
0y
0v
0z
1{
1|
1}
#55000
0!
0;
0[
#55500
1!
1;
1[
0Z!
0Y!
0X!
1W!
0|
0]
1z
0{
1x
1y
1\
0w
1~
0x
1v
0z
1|
1]
0^
1`
0}
0a
0b
0_
1^
0`
1}
1a
1b
1_
1c
1d
0c
0d
#56000
0!
0;
0[
#56500
1!
1;
1[
1Z!
0\
1w
0~
1x
0v
#57000
0!
0;
0[
#57500
1!
1;
1[
0Z!
1Y!
0x
0y
1\
0w
1x
1y
1v
1z
0z
#58000
0!
0;
0[
#58500
1!
1;
1[
1Z!
0\
1w
0x
0y
0v
1z
#59000
0!
0;
0[
#59500
1!
1;
1[
0Z!
0Y!
1X!
0z
1{
1x
1y
1\
0w
1~
0x
1v
1z
0{
0|
0]
0^
1`
0}
1|
1]
1^
0`
1}
0a
0b
0_
1c
1a
1b
1_
0c
1d
0d
#60000
0!
11
0;
1<
1&!
0[
0+!
0-!
#60500
1!
1;
1[
1Z!
0\
1w
0~
1x
0v
#61000
0!
0;
0[
#61500
1!
1;
1[
0Z!
1Y!
0x
0y
1\
0w
1x
1y
1v
0z
1{
0|
0]
1z
0{
1|
1]
0^
1`
0}
0a
0b
0_
1^
0`
1}
1a
1b
1_
1c
1d
0c
0d
#62000
0!
0;
0[
#62500
1!
1;
1[
1Z!
0\
1w
0x
0y
0v
0z
1{
0|
0]
0^
1`
0}
0a
0b
0_
1c
1d
#63000
0!
0;
0[
#63500
1!
1;
1[
0V!
0U!
1T!
0Z!
0Y!
0X!
0W!
1|
1]
1z
0{
1x
1y
1\
0w
0c
1f
1a
1b
1^
0`
0a
1_
1c
0f
1g
0d
0x
1v
0z
0|
0^
1}
0_
0}
0g
1d
#64000
0!
0;
0[
#64500
1!
1;
1[
1Z!
0\
1w
1x
0v
#65000
0!
0;
0[
#65500
1!
1;
1[
0Z!
1Y!
0x
0y
1\
0w
1x
1y
1v
1z
0z
#66000
0!
0;
0[
#66500
1!
1;
1[
1Z!
0\
1w
0x
0y
0v
1z
#67000
0!
0;
0[
#67500
1!
1;
1[
0Z!
0Y!
1X!
0z
1{
1x
1y
1\
0w
0x
1v
1z
0{
1|
1}
0|
0}
#68000
0!
0;
0[
#68500
1!
1;
1[
1Z!
0\
1w
1x
0v
#69000
0!
0;
0[
#69500
1!
1;
1[
0Z!
1Y!
0x
0y
1\
0w
1x
1y
1v
0z
1{
1|
1z
0{
0|
1}
0}
#70000
0!
01
0;
0<
0&!
0[
1+!
1-!
#70500
1!
1;
1[
1Z!
0\
1w
0x
0y
0v
0z
1{
1|
1}
#71000
0!
0;
0[
#71500
1!
1;
1[
0Z!
0Y!
0X!
1W!
0|
0]
1z
0{
1x
1y
1\
0w
1~
0x
1v
0z
1|
1]
1^
0}
1_
0^
1}
0_
#72000
0!
0;
0[
#72500
1!
1;
1[
1Z!
0\
1w
0~
1x
0v
#73000
0!
0;
0[
#73500
1!
1;
1[
0Z!
1Y!
0x
0y
1\
0w
1x
1y
1v
1z
0z
#74000
0!
0;
0[
#74500
1!
1;
1[
1Z!
0\
1w
0x
0y
0v
1z
#75000
0!
0;
0[
#75500
1!
1;
1[
0Z!
0Y!
1X!
0z
1{
1x
1y
1\
0w
1~
0x
1v
1z
0{
0|
0]
1^
0}
1|
1]
0^
1}
1_
0_
#76000
0!
0;
0[
#76500
1!
1;
1[
1Z!
0\
1w
0~
1x
0v
#77000
0!
0;
0[
#77500
1!
1;
1[
0Z!
1Y!
0x
0y
1\
0w
1x
1y
1v
0z
1{
0|
0]
1z
0{
1|
1]
1^
0}
1_
0^
1}
0_
#78000
0!
0;
0[
#78500
1!
1;
1[
1Z!
0\
1w
0x
0y
0v
0z
1{
0|
0]
1^
0}
1_
#79000
0!
0;
0[
#79500
1!
1;
1[
1V!
0Z!
0Y!
0X!
0W!
1|
1]
1z
0{
1x
1y
1\
0w
0^
1`
1e
1a
0_
0x
1v
0z
0|
1^
0`
1}
0a
1_
0}
#80000
0!
0;
0[
#80500
1!
1;
1[
1Z!
0\
1w
1x
0v
#81000
0!
0;
0[
#81500
1!
1;
1[
0Z!
1Y!
0x
0y
1\
0w
1x
1y
1v
1z
0z
#82000
0!
0;
0[
#82500
1!
1;
1[
1Z!
0\
1w
0x
0y
0v
1z
#83000
0!
0;
0[
#83500
1!
1;
1[
0Z!
0Y!
1X!
0e
0z
1{
1x
1y
1\
0w
0x
1v
1z
0{
1|
1}
0|
0}
#84000
0!
0;
0[
#84500
1!
1;
1[
1Z!
0\
1w
1x
0v
#85000
0!
0;
0[
#85500
1!
1;
1[
0Z!
1Y!
0x
0y
1\
0w
1x
1y
1v
0z
1{
1|
1z
0{
0|
1}
0}
#86000
0!
0;
0[
#86500
1!
1;
1[
1Z!
0\
1w
0x
0y
0v
0z
1{
1|
1}
#87000
0!
0;
0[
#87500
1!
1;
1[
0Z!
0Y!
0X!
1W!
0|
0]
1e
1z
0{
1x
1y
1\
0w
1~
0x
1v
0z
1|
1]
0^
1`
0}
1a
0_
1^
0`
1}
0a
1_
#88000
0!
0;
0[
#88500
1!
1;
1[
1Z!
0\
1w
0~
1x
0v
#89000
0!
0;
0[
#89500
1!
1;
1[
0Z!
1Y!
0x
0y
1\
0w
1x
1y
1v
1z
0z
#90000
0!
0;
0[
#90500
1!
1;
1[
1Z!
0\
1w
0x
0y
0v
1z
#91000
0!
0;
0[
#91500
1!
1;
1[
0Z!
0Y!
1X!
0e
0z
1{
1x
1y
1\
0w
1~
0x
1v
1z
0{
0|
0]
0^
1`
0}
1|
1]
1^
0`
1}
1a
0_
0a
1_
#92000
0!
0;
0[
#92500
1!
1;
1[
1Z!
0\
1w
0~
1x
0v
#93000
0!
0;
0[
#93500
1!
1;
1[
0Z!
1Y!
0x
0y
1\
0w
1x
1y
1v
0z
1{
0|
0]
1z
0{
1|
1]
0^
1`
0}
1a
0_
1^
0`
1}
0a
1_
#94000
0!
0;
0[
#94500
1!
1;
1[
1Z!
0\
1w
0x
0y
0v
0z
1{
0|
0]
0^
1`
0}
1a
0_
#95000
0!
0;
0[
#95500
1!
1;
1[
0V!
1U!
0Z!
0Y!
0X!
0W!
1|
1]
1z
0{
1x
1y
1\
0w
0a
0b
1^
0`
1a
1b
1_
0c
1f
0x
1v
0z
0|
0^
1}
0_
0}
1g
0d
1c
0f
0g
1d
#96000
0!
0;
0[
#96500
1!
1;
1[
1Z!
0\
1w
1x
0v
#97000
0!
0;
0[
#97500
1!
1;
1[
0Z!
1Y!
0x
0y
1\
0w
1x
1y
1v
1z
0z
#98000
0!
0;
0[
#98500
1!
1;
1[
1Z!
0\
1w
0x
0y
0v
1z
#99000
0!
0;
0[
#99500
1!
1;
1[
0Z!
0Y!
1X!
0z
1{
1x
1y
1\
0w
0x
1v
1z
0{
1|
1}
0|
0}
#100000
0!
11
0;
1<
1&!
0[
0+!
0-!
#100500
1!
1;
1[
1Z!
0\
1w
1x
0v
#101000
0!
0;
0[
#101500
1!
1;
1[
0Z!
1Y!
0x
0y
1\
0w
1x
1y
1v
0z
1{
1|
1z
0{
0|
1}
0}
#102000
0!
0;
0[
#102500
1!
1;
1[
1Z!
0\
1w
0x
0y
0v
0z
1{
1|
1}
#103000
0!
0;
0[
#103500
1!
1;
1[
0Z!
0Y!
0X!
1W!
0|
0]
1z
0{
1x
1y
1\
0w
1~
0x
1v
0z
1|
1]
1^
0}
1_
0^
1}
0_
#104000
0!
0;
0[
#104500
1!
1;
1[
1Z!
0\
1w
0~
1x
0v
#105000
0!
0;
0[
#105500
1!
1;
1[
0Z!
1Y!
0x
0y
1\
0w
1x
1y
1v
1z
0z
#106000
0!
0;
0[
#106500
1!
1;
1[
1Z!
0\
1w
0x
0y
0v
1z
#107000
0!
0;
0[
#107500
1!
1;
1[
0Z!
0Y!
1X!
0z
1{
1x
1y
1\
0w
1~
0x
1v
1z
0{
0|
0]
1^
0}
1|
1]
0^
1}
1_
0_
#108000
0!
0;
0[
#108500
1!
1;
1[
1Z!
0\
1w
0~
1x
0v
#109000
0!
0;
0[
#109500
1!
1;
1[
0Z!
1Y!
0x
0y
1\
0w
1x
1y
1v
0z
1{
0|
0]
1z
0{
1|
1]
1^
0}
1_
0^
1}
0_
#110000
0!
0;
0[
#110500
1!
1;
1[
1Z!
0\
1w
0x
0y
0v
0z
1{
0|
0]
1^
0}
1_
#111000
0!
0;
0[
#111500
1!
1;
1[
1V!
0Z!
0Y!
0X!
0W!
1|
1]
1z
0{
1x
1y
1\
0w
0^
1`
0a
0b
0_
0x
1v
0z
0|
1^
0`
1}
1a
1b
1_
0}
0c
1f
1g
0d
1c
0f
0g
1d
#112000
0!
0;
0[
#112500
1!
1;
1[
1Z!
0\
1w
1x
0v
#113000
0!
0;
0[
#113500
1!
1;
1[
0Z!
1Y!
0x
0y
1\
0w
1x
1y
1v
1z
0z
#114000
0!
0;
0[
#114500
1!
1;
1[
1Z!
0\
1w
0x
0y
0v
1z
#115000
0!
0;
0[
#115500
1!
1;
1[
0Z!
0Y!
1X!
0z
1{
1x
1y
1\
0w
0x
1v
1z
0{
1|
1}
0|
0}
#116000
0!
0;
0[
#116500
1!
1;
1[
1Z!
0\
1w
1x
0v
#117000
0!
0;
0[
#117500
1!
1;
1[
0Z!
1Y!
0x
0y
1\
0w
1x
1y
1v
0z
1{
1|
1z
0{
0|
1}
0}
#118000
0!
0;
0[
#118500
1!
1;
1[
1Z!
0\
1w
0x
0y
0v
0z
1{
1|
1}
#119000
0!
0;
0[
#119500
1!
1;
1[
0Z!
0Y!
0X!
1W!
0|
0]
1z
0{
1x
1y
1\
0w
1~
0x
1v
0z
1|
1]
0^
1`
0}
0a
0b
0_
1^
0`
1}
1a
1b
1_
0c
1f
1g
0d
1c
0f
0g
1d
#120000
0!
01
0;
0<
0&!
0[
1+!
1-!
#120500
1!
1;
1[
1Z!
0\
1w
0~
1x
0v
#121000
0!
0;
0[
#121500
1!
1;
1[
0Z!
1Y!
0x
0y
1\
0w
1x
1y
1v
1z
0z
#122000
0!
0;
0[
#122500
1!
1;
1[
1Z!
0\
1w
0x
0y
0v
1z
#123000
0!
0;
0[
#123500
1!
1;
1[
0Z!
0Y!
1X!
0z
1{
1x
1y
1\
0w
1~
0x
1v
1z
0{
0|
0]
0^
1`
0}
1|
1]
1^
0`
1}
0a
0b
0_
0c
1f
1a
1b
1_
1c
0f
1g
0d
0g
1d
#124000
0!
0;
0[
#124500
1!
1;
1[
1Z!
0\
1w
0~
1x
0v
#125000
0!
0;
0[
#125500
1!
1;
1[
0Z!
1Y!
0x
0y
1\
0w
1x
1y
1v
0z
1{
0|
0]
1z
0{
1|
1]
0^
1`
0}
0a
0b
0_
1^
0`
1}
1a
1b
1_
0c
1f
1g
0d
1c
0f
0g
1d
#126000
0!
0;
0[
#126500
1!
1;
1[
1Z!
0\
1w
0x
0y
0v
0z
1{
0|
0]
0^
1`
0}
0a
0b
0_
0c
1f
1g
0d
#127000
0!
0;
0[
#127500
1!
1;
1[
0V!
0U!
0T!
1S!
0Z!
0Y!
0X!
0W!
1|
1]
1z
0{
1x
1y
1\
0w
0g
0h
1c
0f
1a
1b
1^
0`
0a
1_
0c
1g
1h
1d
1i
0x
1v
0z
0|
0^
1}
0_
0}
0i
0d
#128000
0!
0;
0[
#128500
1!
1;
1[
1Z!
0\
1w
1x
0v
#129000
0!
0;
0[
#129500
1!
1;
1[
0Z!
1Y!
0x
0y
1\
0w
1x
1y
1v
1z
0z
#130000
0!
0;
0[
#130500
1!
1;
1[
1Z!
0\
1w
0x
0y
0v
1z
#131000
0!
0;
0[
#131500
1!
1;
1[
0Z!
0Y!
1X!
0z
1{
1x
1y
1\
0w
0x
1v
1z
0{
1|
1}
0|
0}
#132000
0!
0;
0[
#132500
1!
1;
1[
1Z!
0\
1w
1x
0v
#133000
0!
0;
0[
#133500
1!
1;
1[
0Z!
1Y!
0x
0y
1\
0w
1x
1y
1v
0z
1{
1|
1z
0{
0|
1}
0}
#134000
0!
0;
0[
#134500
1!
1;
1[
1Z!
0\
1w
0x
0y
0v
0z
1{
1|
1}
#135000
0!
0;
0[
#135500
1!
1;
1[
0Z!
0Y!
0X!
1W!
0|
0]
1z
0{
1x
1y
1\
0w
0x
1v
0z
1|
1]
1^
0}
1_
0^
1}
0_
#136000
0!
0;
0[
#136500
1!
1;
1[
1Z!
0\
1w
1x
0v
#137000
0!
0;
0[
#137500
1!
1;
1[
0Z!
1Y!
0x
0y
1\
0w
1x
1y
1v
1z
0z
#138000
0!
0;
0[
#138500
1!
1;
1[
1Z!
0\
1w
0x
0y
0v
1z
#139000
0!
0;
0[
#139500
1!
1;
1[
0Z!
0Y!
1X!
0z
1{
1x
1y
1\
0w
0x
1v
1z
0{
0|
0]
1^
0}
1|
1]
0^
1}
1_
0_
#140000
0!
11
0;
1<
1&!
0[
0+!
0-!
#140500
1!
1;
1[
1Z!
0\
1w
1x
0v
#141000
0!
0;
0[
#141500
1!
1;
1[
0Z!
1Y!
0x
0y
1\
0w
1x
1y
1v
0z
1{
0|
0]
1z
0{
1|
1]
1^
0}
1_
0^
1}
0_
#142000
0!
0;
0[
#142500
1!
1;
1[
1Z!
0\
1w
0x
0y
0v
0z
1{
0|
0]
1^
0}
1_
#143000
0!
0;
0[
#143500
1!
1;
1[
1V!
0Z!
0Y!
0X!
0W!
1|
1]
1z
0{
1x
1y
1\
0w
0^
1`
1a
0_
0x
1v
0z
0|
1^
0`
1}
0a
1_
0}
#144000
0!
0;
0[
#144500
1!
1;
1[
1Z!
0\
1w
1x
0v
#145000
0!
0;
0[
#145500
1!
1;
1[
0Z!
1Y!
0x
0y
1\
0w
1x
1y
1v
1z
0z
#146000
0!
0;
0[
#146500
1!
1;
1[
1Z!
0\
1w
0x
0y
0v
1z
#147000
0!
0;
0[
